%YAML 1.1
%TAG !u! tag:unity3d.com,2011:
--- !u!74 &7400000
AnimationClip:
  m_ObjectHideFlags: 0
  m_CorrespondingSourceObject: {fileID: 0}
  m_PrefabInstance: {fileID: 0}
  m_PrefabAsset: {fileID: 0}
  m_Name: GradeMover0-90
  serializedVersion: 6
  m_Legacy: 1
  m_Compressed: 0
  m_UseHighQualityCurve: 1
  m_RotationCurves:
  - curve:
      serializedVersion: 2
      m_Curve:
      - serializedVersion: 3
        time: 0
        value: {x: 0, y: 0, z: 0.70710677, w: 0.70710677}
        inSlope: {x: -0.10860369, y: -0.10860369, z: -0.00013947487, w: -0.00013947487}
        outSlope: {x: -0.10860369, y: -0.10860369, z: -0.00013947487, w: -0.00013947487}
        tangentMode: 0
        weightedMode: 0
        inWeight: {x: 0.33333334, y: 0.33333334, z: 0.33333334, w: 0.33333334}
        outWeight: {x: 0.33333334, y: 0.33333334, z: 0.33333334, w: 0.33333334}
      - serializedVersion: 3
        time: 0.016666668
        value: {x: -0.0018100616, y: -0.0018100616, z: 0.70710444, w: 0.70710444}
        inSlope: {x: -0.21226753, y: -0.21226753, z: -0.0010621548, w: -0.0010621548}
        outSlope: {x: -0.21226753, y: -0.21226753, z: -0.0010621548, w: -0.0010621548}
        tangentMode: 0
        weightedMode: 0
        inWeight: {x: 0.33333334, y: 0.33333334, z: 0.33333334, w: 0.33333334}
        outWeight: {x: 0.33333334, y: 0.33333334, z: 0.33333334, w: 0.33333334}
      - serializedVersion: 3
        time: 0.033333335
        value: {x: -0.007075585, y: -0.007075585, z: 0.70707136, w: 0.70707136}
        inSlope: {x: -0.4121633, y: -0.4121633, z: -0.005060434, w: -0.005060434}
        outSlope: {x: -0.4121633, y: -0.4121633, z: -0.005060434, w: -0.005060434}
        tangentMode: 0
        weightedMode: 0
        inWeight: {x: 0.33333334, y: 0.33333334, z: 0.33333334, w: 0.33333334}
        outWeight: {x: 0.33333334, y: 0.33333334, z: 0.33333334, w: 0.33333334}
      - serializedVersion: 3
        time: 0.050000004
        value: {x: -0.015548839, y: -0.015548839, z: 0.70693576, w: 0.70693576}
        inSlope: {x: -0.5971279, y: -0.5971279, z: -0.014385581, w: -0.014385581}
        outSlope: {x: -0.5971279, y: -0.5971279, z: -0.014385581, w: -0.014385581}
        tangentMode: 0
        weightedMode: 0
        inWeight: {x: 0.33333334, y: 0.33333334, z: 0.33333334, w: 0.33333334}
        outWeight: {x: 0.33333334, y: 0.33333334, z: 0.33333334, w: 0.33333334}
      - serializedVersion: 3
        time: 0.06666667
        value: {x: -0.02697985, y: -0.02697985, z: 0.70659184, w: 0.70659184}
        inSlope: {x: -0.7669729, y: -0.7669729, z: -0.030759577, w: -0.030759577}
        outSlope: {x: -0.7669729, y: -0.7669729, z: -0.030759577, w: -0.030759577}
        tangentMode: 0
        weightedMode: 0
        inWeight: {x: 0.33333334, y: 0.33333334, z: 0.33333334, w: 0.33333334}
        outWeight: {x: 0.33333334, y: 0.33333334, z: 0.33333334, w: 0.33333334}
      - serializedVersion: 3
        time: 0.083333336
        value: {x: -0.041114602, y: -0.041114602, z: 0.70591044, w: 0.70591044}
        inSlope: {x: -0.9214027, y: -0.9214027, z: -0.055278547, w: -0.055278547}
        outSlope: {x: -0.9214027, y: -0.9214027, z: -0.055278547, w: -0.055278547}
        tangentMode: 0
        weightedMode: 0
        inWeight: {x: 0.33333334, y: 0.33333334, z: 0.33333334, w: 0.33333334}
        outWeight: {x: 0.33333334, y: 0.33333334, z: 0.33333334, w: 0.33333334}
      - serializedVersion: 3
        time: 0.1
        value: {x: -0.057693273, y: -0.057693273, z: 0.7047492, w: 0.7047492}
        inSlope: {x: -1.0600282, y: -1.0600282, z: -0.0884539, w: -0.0884539}
        outSlope: {x: -1.0600282, y: -1.0600282, z: -0.0884539, w: -0.0884539}
        tangentMode: 0
        weightedMode: 0
        inWeight: {x: 0.33333334, y: 0.33333334, z: 0.33333334, w: 0.33333334}
        outWeight: {x: 0.33333334, y: 0.33333334, z: 0.33333334, w: 0.33333334}
      - serializedVersion: 3
        time: 0.11666667
        value: {x: -0.07644887, y: -0.07644887, z: 0.702962, w: 0.702962}
        inSlope: {x: -1.1823962, y: -1.1823962, z: -0.13026056, w: -0.13026056}
        outSlope: {x: -1.1823962, y: -1.1823962, z: -0.13026056, w: -0.13026056}
        tangentMode: 0
        weightedMode: 0
        inWeight: {x: 0.33333334, y: 0.33333334, z: 0.33333334, w: 0.33333334}
        outWeight: {x: 0.33333334, y: 0.33333334, z: 0.33333334, w: 0.33333334}
      - serializedVersion: 3
        time: 0.13333334
        value: {x: -0.09710649, y: -0.09710649, z: 0.7004072, w: 0.7004072}
        inSlope: {x: -1.288032, y: -1.288032, z: -0.18018004, w: -0.18018004}
        outSlope: {x: -1.288032, y: -1.288032, z: -0.18018004, w: -0.18018004}
        tangentMode: 0
        weightedMode: 0
        inWeight: {x: 0.33333334, y: 0.33333334, z: 0.33333334, w: 0.33333334}
        outWeight: {x: 0.33333334, y: 0.33333334, z: 0.33333334, w: 0.33333334}
      - serializedVersion: 3
        time: 0.15
        value: {x: -0.11938328, y: -0.11938328, z: 0.696956, w: 0.696956}
        inSlope: {x: -1.3764877, y: -1.3764877, z: -0.23726466, w: -0.23726466}
        outSlope: {x: -1.3764877, y: -1.3764877, z: -0.23726466, w: -0.23726466}
        tangentMode: 0
        weightedMode: 0
        inWeight: {x: 0.33333334, y: 0.33333334, z: 0.33333334, w: 0.33333334}
        outWeight: {x: 0.33333334, y: 0.33333334, z: 0.33333334, w: 0.33333334}
      - serializedVersion: 3
        time: 0.16666667
        value: {x: -0.14298941, y: -0.14298941, z: 0.6924984, w: 0.6924984}
        inSlope: {x: -1.4473932, y: -1.4473932, z: -0.30018035, w: -0.30018035}
        outSlope: {x: -1.4473932, y: -1.4473932, z: -0.30018035, w: -0.30018035}
        tangentMode: 0
        weightedMode: 0
        inWeight: {x: 0.33333334, y: 0.33333334, z: 0.33333334, w: 0.33333334}
        outWeight: {x: 0.33333334, y: 0.33333334, z: 0.33333334, w: 0.33333334}
      - serializedVersion: 3
        time: 0.18333334
        value: {x: -0.16762972, y: -0.16762972, z: 0.68694997, w: 0.68694997}
        inSlope: {x: -1.5005028, y: -1.5005028, z: -0.36726418, w: -0.36726418}
        outSlope: {x: -1.5005028, y: -1.5005028, z: -0.36726418, w: -0.36726418}
        tangentMode: 0
        weightedMode: 0
        inWeight: {x: 0.33333334, y: 0.33333334, z: 0.33333334, w: 0.33333334}
        outWeight: {x: 0.33333334, y: 0.33333334, z: 0.33333334, w: 0.33333334}
      - serializedVersion: 3
        time: 0.2
        value: {x: -0.19300617, y: -0.19300617, z: 0.68025625, w: 0.68025625}
        inSlope: {x: -1.5357387, y: -1.5357387, z: -0.4365975, w: -0.4365975}
        outSlope: {x: -1.5357387, y: -1.5357387, z: -0.4365975, w: -0.4365975}
        tangentMode: 0
        weightedMode: 0
        inWeight: {x: 0.33333334, y: 0.33333334, z: 0.33333334, w: 0.33333334}
        outWeight: {x: 0.33333334, y: 0.33333334, z: 0.33333334, w: 0.33333334}
      - serializedVersion: 3
        time: 0.21666667
        value: {x: -0.218821, y: -0.218821, z: 0.6723967, w: 0.6723967}
        inSlope: {x: -1.5532244, y: -1.5532244, z: -0.5060703, w: -0.5060703}
        outSlope: {x: -1.5532244, y: -1.5532244, z: -0.5060703, w: -0.5060703}
        tangentMode: 0
        weightedMode: 0
        inWeight: {x: 0.33333334, y: 0.33333334, z: 0.33333334, w: 0.33333334}
        outWeight: {x: 0.33333334, y: 0.33333334, z: 0.33333334, w: 0.33333334}
      - serializedVersion: 3
        time: 0.23333333
        value: {x: -0.24478032, y: -0.24478032, z: 0.66338724, w: 0.66338724}
        inSlope: {x: -1.5533116, y: -1.5533116, z: -0.57345814, w: -0.57345814}
        outSlope: {x: -1.5533116, y: -1.5533116, z: -0.57345814, w: -0.57345814}
        tangentMode: 0
        weightedMode: 0
        inWeight: {x: 0.33333334, y: 0.33333334, z: 0.33333334, w: 0.33333334}
        outWeight: {x: 0.33333334, y: 0.33333334, z: 0.33333334, w: 0.33333334}
      - serializedVersion: 3
        time: 0.25
        value: {x: -0.27059805, y: -0.27059805, z: 0.65328145, w: 0.65328145}
        inSlope: {x: -1.5365837, y: -1.5365837, z: -0.63647366, w: -0.63647366}
        outSlope: {x: -1.5365837, y: -1.5365837, z: -0.63647366, w: -0.63647366}
        tangentMode: 0
        weightedMode: 0
        inWeight: {x: 0.33333334, y: 0.33333334, z: 0.33333334, w: 0.33333334}
        outWeight: {x: 0.33333334, y: 0.33333334, z: 0.33333334, w: 0.33333334}
      - serializedVersion: 3
        time: 0.26666668
        value: {x: -0.2959998, y: -0.2959998, z: 0.64217144, w: 0.64217144}
        inSlope: {x: -1.5038534, y: -1.5038534, z: -0.6928623, w: -0.6928623}
        outSlope: {x: -1.5038534, y: -1.5038534, z: -0.6928623, w: -0.6928623}
        tangentMode: 0
        weightedMode: 0
        inWeight: {x: 0.33333334, y: 0.33333334, z: 0.33333334, w: 0.33333334}
        outWeight: {x: 0.33333334, y: 0.33333334, z: 0.33333334, w: 0.33333334}
      - serializedVersion: 3
        time: 0.28333336
        value: {x: -0.32072654, y: -0.32072654, z: 0.630186, w: 0.630186}
        inSlope: {x: -1.4561424, y: -1.4561424, z: -0.74045, w: -0.74045}
        outSlope: {x: -1.4561424, y: -1.4561424, z: -0.74045, w: -0.74045}
        tangentMode: 0
        weightedMode: 0
        inWeight: {x: 0.33333334, y: 0.33333334, z: 0.33333334, w: 0.33333334}
        outWeight: {x: 0.33333334, y: 0.33333334, z: 0.33333334, w: 0.33333334}
      - serializedVersion: 3
        time: 0.30000004
        value: {x: -0.3445379, y: -0.3445379, z: 0.61748976, w: 0.61748976}
        inSlope: {x: -1.39465, y: -1.39465, z: -0.77720696, w: -0.77720696}
        outSlope: {x: -1.39465, y: -1.39465, z: -0.77720696, w: -0.77720696}
        tangentMode: 0
        weightedMode: 0
        inWeight: {x: 0.33333334, y: 0.33333334, z: 0.33333334, w: 0.33333334}
        outWeight: {x: 0.33333334, y: 0.33333334, z: 0.33333334, w: 0.33333334}
      - serializedVersion: 3
        time: 0.31666672
        value: {x: -0.36721492, y: -0.36721492, z: 0.6042791, w: 0.6042791}
        inSlope: {x: -1.3207088, y: -1.3207088, z: -0.80132, w: -0.80132}
        outSlope: {x: -1.3207088, y: -1.3207088, z: -0.80132, w: -0.80132}
        tangentMode: 0
        weightedMode: 0
        inWeight: {x: 0.33333334, y: 0.33333334, z: 0.33333334, w: 0.33333334}
        outWeight: {x: 0.33333334, y: 0.33333334, z: 0.33333334, w: 0.33333334}
      - serializedVersion: 3
        time: 0.3333334
        value: {x: -0.38856158, y: -0.38856158, z: 0.59077907, w: 0.59077907}
        inSlope: {x: -1.2357213, y: -1.2357213, z: -0.81120485, w: -0.81120485}
        outSlope: {x: -1.2357213, y: -1.2357213, z: -0.81120485, w: -0.81120485}
        tangentMode: 0
        weightedMode: 0
        inWeight: {x: 0.33333334, y: 0.33333334, z: 0.33333334, w: 0.33333334}
        outWeight: {x: 0.33333334, y: 0.33333334, z: 0.33333334, w: 0.33333334}
      - serializedVersion: 3
        time: 0.35000008
        value: {x: -0.40840566, y: -0.40840566, z: 0.5772389, w: 0.5772389}
        inSlope: {x: -1.1410966, y: -1.1410966, z: -0.80555254, w: -0.80555254}
        outSlope: {x: -1.1410966, y: -1.1410966, z: -0.80555254, w: -0.80555254}
        tangentMode: 0
        weightedMode: 0
        inWeight: {x: 0.33333334, y: 0.33333334, z: 0.33333334, w: 0.33333334}
        outWeight: {x: 0.33333334, y: 0.33333334, z: 0.33333334, w: 0.33333334}
      - serializedVersion: 3
        time: 0.36666676
        value: {x: -0.42659816, y: -0.42659816, z: 0.5639273, w: 0.5639273}
        inSlope: {x: -1.038182, y: -1.038182, z: -0.7833671, w: -0.7833671}
        outSlope: {x: -1.038182, y: -1.038182, z: -0.7833671, w: -0.7833671}
        tangentMode: 0
        weightedMode: 0
        inWeight: {x: 0.33333334, y: 0.33333334, z: 0.33333334, w: 0.33333334}
        outWeight: {x: 0.33333334, y: 0.33333334, z: 0.33333334, w: 0.33333334}
      - serializedVersion: 3
        time: 0.38333344
        value: {x: -0.44301176, y: -0.44301176, z: 0.55112666, w: 0.55112666}
        inSlope: {x: -0.9281866, y: -0.9281866, z: -0.74397266, w: -0.74397266}
        outSlope: {x: -0.9281866, y: -0.9281866, z: -0.74397266, w: -0.74397266}
        tangentMode: 0
        weightedMode: 0
        inWeight: {x: 0.33333334, y: 0.33333334, z: 0.33333334, w: 0.33333334}
        outWeight: {x: 0.33333334, y: 0.33333334, z: 0.33333334, w: 0.33333334}
      - serializedVersion: 3
        time: 0.40000013
        value: {x: -0.45753774, y: -0.45753774, z: 0.5391282, w: 0.5391282}
        inSlope: {x: -0.81209886, y: -0.81209886, z: -0.6870079, w: -0.6870079}
        outSlope: {x: -0.81209886, y: -0.81209886, z: -0.6870079, w: -0.6870079}
        tangentMode: 0
        weightedMode: 0
        inWeight: {x: 0.33333334, y: 0.33333334, z: 0.33333334, w: 0.33333334}
        outWeight: {x: 0.33333334, y: 0.33333334, z: 0.33333334, w: 0.33333334}
      - serializedVersion: 3
        time: 0.4166668
        value: {x: -0.47008175, y: -0.47008175, z: 0.5282264, w: 0.5282264}
        inSlope: {x: -0.69061637, y: -0.69061637, z: -0.6124408, w: -0.6124408}
        outSlope: {x: -0.69061637, y: -0.69061637, z: -0.6124408, w: -0.6124408}
        tangentMode: 0
        weightedMode: 0
        inWeight: {x: 0.33333334, y: 0.33333334, z: 0.33333334, w: 0.33333334}
        outWeight: {x: 0.33333334, y: 0.33333334, z: 0.33333334, w: 0.33333334}
      - serializedVersion: 3
        time: 0.4333335
        value: {x: -0.4805583, y: -0.4805583, z: 0.5187135, w: 0.5187135}
        inSlope: {x: -0.5640815, y: -0.5640815, z: -0.5205806, w: -0.5205806}
        outSlope: {x: -0.5640815, y: -0.5640815, z: -0.5205806, w: -0.5205806}
        tangentMode: 0
        weightedMode: 0
        inWeight: {x: 0.33333334, y: 0.33333334, z: 0.33333334, w: 0.33333334}
        outWeight: {x: 0.33333334, y: 0.33333334, z: 0.33333334, w: 0.33333334}
      - serializedVersion: 3
        time: 0.45000017
        value: {x: -0.48888448, y: -0.48888448, z: 0.5108737, w: 0.5108737}
        inSlope: {x: -0.43240482, y: -0.43240482, z: -0.41206205, w: -0.41206205}
        outSlope: {x: -0.43240482, y: -0.43240482, z: -0.41206205, w: -0.41206205}
        tangentMode: 0
        weightedMode: 0
        inWeight: {x: 0.33333334, y: 0.33333334, z: 0.33333334, w: 0.33333334}
        outWeight: {x: 0.33333334, y: 0.33333334, z: 0.33333334, w: 0.33333334}
      - serializedVersion: 3
        time: 0.46666685
        value: {x: -0.4949718, y: -0.4949718, z: 0.50497806, w: 0.50497806}
        inSlope: {x: -0.2950195, y: -0.2950195, z: -0.28786337, w: -0.28786337}
        outSlope: {x: -0.2950195, y: -0.2950195, z: -0.28786337, w: -0.28786337}
        tangentMode: 0
        weightedMode: 0
        inWeight: {x: 0.33333334, y: 0.33333334, z: 0.33333334, w: 0.33333334}
        outWeight: {x: 0.33333334, y: 0.33333334, z: 0.33333334, w: 0.33333334}
      - serializedVersion: 3
        time: 0.48333353
        value: {x: -0.49871847, y: -0.49871847, z: 0.5012782, w: 0.5012782}
        inSlope: {x: -0.15084511, y: -0.15084511, z: -0.14934307, w: -0.14934307}
        outSlope: {x: -0.15084511, y: -0.15084511, z: -0.14934307, w: -0.14934307}
        tangentMode: 0
        weightedMode: 0
        inWeight: {x: 0.33333334, y: 0.33333334, z: 0.33333334, w: 0.33333334}
        outWeight: {x: 0.33333334, y: 0.33333334, z: 0.33333334, w: 0.33333334}
      - serializedVersion: 3
        time: 0.5
        value: {x: -0.49999997, y: -0.49999997, z: 0.49999997, w: 0.49999997}
        inSlope: {x: -0.07689089, y: -0.07689089, z: -0.07669598, w: -0.07669598}
        outSlope: {x: -0.07689089, y: -0.07689089, z: -0.07669598, w: -0.07669598}
        tangentMode: 0
        weightedMode: 0
        inWeight: {x: 0.33333334, y: 0.33333334, z: 0.33333334, w: 0.33333334}
        outWeight: {x: 0.33333334, y: 0.33333334, z: 0.33333334, w: 0.33333334}
      m_PreInfinity: 2
      m_PostInfinity: 2
      m_RotationOrder: 4
    path: 
  m_CompressedRotationCurves: []
  m_EulerCurves: []
  m_PositionCurves: []
  m_ScaleCurves: []
  m_FloatCurves: []
  m_PPtrCurves: []
  m_SampleRate: 60
  m_WrapMode: 0
  m_Bounds:
    m_Center: {x: 0, y: 0, z: 0}
    m_Extent: {x: 0, y: 0, z: 0}
  m_ClipBindingConstant:
    genericBindings: []
    pptrCurveMapping: []
  m_AnimationClipSettings:
    serializedVersion: 2
    m_AdditiveReferencePoseClip: {fileID: 0}
    m_AdditiveReferencePoseTime: 0
    m_StartTime: 0
    m_StopTime: 0.5
    m_OrientationOffsetY: 0
    m_Level: 0
    m_CycleOffset: 0
    m_HasAdditiveReferencePose: 0
    m_LoopTime: 1
    m_LoopBlend: 0
    m_LoopBlendOrientation: 0
    m_LoopBlendPositionY: 0
    m_LoopBlendPositionXZ: 0
    m_KeepOriginalOrientation: 0
    m_KeepOriginalPositionY: 1
    m_KeepOriginalPositionXZ: 0
    m_HeightFromFeet: 0
    m_Mirror: 0
  m_EditorCurves:
  - curve:
      serializedVersion: 2
      m_Curve:
      - serializedVersion: 3
        time: 0
        value: 0
        inSlope: -0.10860369
        outSlope: -0.10860369
        tangentMode: 0
        weightedMode: 0
        inWeight: 0.33333334
        outWeight: 0.33333334
      - serializedVersion: 3
        time: 0.016666668
        value: -0.0018100616
        inSlope: -0.21226753
        outSlope: -0.21226753
        tangentMode: 0
        weightedMode: 0
        inWeight: 0.33333334
        outWeight: 0.33333334
      - serializedVersion: 3
        time: 0.033333335
        value: -0.007075585
        inSlope: -0.4121633
        outSlope: -0.4121633
        tangentMode: 0
        weightedMode: 0
        inWeight: 0.33333334
        outWeight: 0.33333334
      - serializedVersion: 3
        time: 0.050000004
        value: -0.015548839
        inSlope: -0.5971279
        outSlope: -0.5971279
        tangentMode: 0
        weightedMode: 0
        inWeight: 0.33333334
        outWeight: 0.33333334
      - serializedVersion: 3
        time: 0.06666667
        value: -0.02697985
        inSlope: -0.7669729
        outSlope: -0.7669729
        tangentMode: 0
        weightedMode: 0
        inWeight: 0.33333334
        outWeight: 0.33333334
      - serializedVersion: 3
        time: 0.083333336
        value: -0.041114602
        inSlope: -0.9214027
        outSlope: -0.9214027
        tangentMode: 0
        weightedMode: 0
        inWeight: 0.33333334
        outWeight: 0.33333334
      - serializedVersion: 3
        time: 0.1
        value: -0.057693273
        inSlope: -1.0600282
        outSlope: -1.0600282
        tangentMode: 0
        weightedMode: 0
        inWeight: 0.33333334
        outWeight: 0.33333334
      - serializedVersion: 3
        time: 0.11666667
        value: -0.07644887
        inSlope: -1.1823962
        outSlope: -1.1823962
        tangentMode: 0
        weightedMode: 0
        inWeight: 0.33333334
        outWeight: 0.33333334
      - serializedVersion: 3
        time: 0.13333334
        value: -0.09710649
        inSlope: -1.288032
        outSlope: -1.288032
        tangentMode: 0
        weightedMode: 0
        inWeight: 0.33333334
        outWeight: 0.33333334
      - serializedVersion: 3
        time: 0.15
        value: -0.11938328
        inSlope: -1.3764877
        outSlope: -1.3764877
        tangentMode: 0
        weightedMode: 0
        inWeight: 0.33333334
        outWeight: 0.33333334
      - serializedVersion: 3
        time: 0.16666667
        value: -0.14298941
        inSlope: -1.4473932
        outSlope: -1.4473932
        tangentMode: 0
        weightedMode: 0
        inWeight: 0.33333334
        outWeight: 0.33333334
      - serializedVersion: 3
        time: 0.18333334
        value: -0.16762972
        inSlope: -1.5005028
        outSlope: -1.5005028
        tangentMode: 0
        weightedMode: 0
        inWeight: 0.33333334
        outWeight: 0.33333334
      - serializedVersion: 3
        time: 0.2
        value: -0.19300617
        inSlope: -1.5357387
        outSlope: -1.5357387
        tangentMode: 0
        weightedMode: 0
        inWeight: 0.33333334
        outWeight: 0.33333334
      - serializedVersion: 3
        time: 0.21666667
        value: -0.218821
        inSlope: -1.5532244
        outSlope: -1.5532244
        tangentMode: 0
        weightedMode: 0
        inWeight: 0.33333334
        outWeight: 0.33333334
      - serializedVersion: 3
        time: 0.23333333
        value: -0.24478032
        inSlope: -1.5533116
        outSlope: -1.5533116
        tangentMode: 0
        weightedMode: 0
        inWeight: 0.33333334
        outWeight: 0.33333334
      - serializedVersion: 3
        time: 0.25
        value: -0.27059805
        inSlope: -1.5365837
        outSlope: -1.5365837
        tangentMode: 0
        weightedMode: 0
        inWeight: 0.33333334
        outWeight: 0.33333334
      - serializedVersion: 3
        time: 0.26666668
        value: -0.2959998
        inSlope: -1.5038534
        outSlope: -1.5038534
        tangentMode: 0
        weightedMode: 0
        inWeight: 0.33333334
        outWeight: 0.33333334
      - serializedVersion: 3
        time: 0.28333336
        value: -0.32072654
        inSlope: -1.4561424
        outSlope: -1.4561424
        tangentMode: 0
        weightedMode: 0
        inWeight: 0.33333334
        outWeight: 0.33333334
      - serializedVersion: 3
        time: 0.30000004
        value: -0.3445379
        inSlope: -1.39465
        outSlope: -1.39465
        tangentMode: 0
        weightedMode: 0
        inWeight: 0.33333334
        outWeight: 0.33333334
      - serializedVersion: 3
        time: 0.31666672
        value: -0.36721492
        inSlope: -1.3207088
        outSlope: -1.3207088
        tangentMode: 0
        weightedMode: 0
        inWeight: 0.33333334
        outWeight: 0.33333334
      - serializedVersion: 3
        time: 0.3333334
        value: -0.38856158
        inSlope: -1.2357213
        outSlope: -1.2357213
        tangentMode: 0
        weightedMode: 0
        inWeight: 0.33333334
        outWeight: 0.33333334
      - serializedVersion: 3
        time: 0.35000008
        value: -0.40840566
        inSlope: -1.1410966
        outSlope: -1.1410966
        tangentMode: 0
        weightedMode: 0
        inWeight: 0.33333334
        outWeight: 0.33333334
      - serializedVersion: 3
        time: 0.36666676
        value: -0.42659816
        inSlope: -1.038182
        outSlope: -1.038182
        tangentMode: 0
        weightedMode: 0
        inWeight: 0.33333334
        outWeight: 0.33333334
      - serializedVersion: 3
        time: 0.38333344
        value: -0.44301176
        inSlope: -0.9281866
        outSlope: -0.9281866
        tangentMode: 0
        weightedMode: 0
        inWeight: 0.33333334
        outWeight: 0.33333334
      - serializedVersion: 3
        time: 0.40000013
        value: -0.45753774
        inSlope: -0.81209886
        outSlope: -0.81209886
        tangentMode: 0
        weightedMode: 0
        inWeight: 0.33333334
        outWeight: 0.33333334
      - serializedVersion: 3
        time: 0.4166668
        value: -0.47008175
        inSlope: -0.69061637
        outSlope: -0.69061637
        tangentMode: 0
        weightedMode: 0
        inWeight: 0.33333334
        outWeight: 0.33333334
      - serializedVersion: 3
        time: 0.4333335
        value: -0.4805583
        inSlope: -0.5640815
        outSlope: -0.5640815
        tangentMode: 0
        weightedMode: 0
        inWeight: 0.33333334
        outWeight: 0.33333334
      - serializedVersion: 3
        time: 0.45000017
        value: -0.48888448
        inSlope: -0.43240482
        outSlope: -0.43240482
        tangentMode: 0
        weightedMode: 0
        inWeight: 0.33333334
        outWeight: 0.33333334
      - serializedVersion: 3
        time: 0.46666685
        value: -0.4949718
        inSlope: -0.2950195
        outSlope: -0.2950195
        tangentMode: 0
        weightedMode: 0
        inWeight: 0.33333334
        outWeight: 0.33333334
      - serializedVersion: 3
        time: 0.48333353
        value: -0.49871847
        inSlope: -0.15084511
        outSlope: -0.15084511
        tangentMode: 0
        weightedMode: 0
        inWeight: 0.33333334
        outWeight: 0.33333334
      - serializedVersion: 3
        time: 0.5
        value: -0.49999997
        inSlope: -0.07689089
        outSlope: -0.07689089
        tangentMode: 0
        weightedMode: 0
        inWeight: 0.33333334
        outWeight: 0.33333334
      m_PreInfinity: 2
      m_PostInfinity: 2
      m_RotationOrder: 4
    attribute: m_LocalRotation.x
    path: 
    classID: 4
    script: {fileID: 0}
  - curve:
      serializedVersion: 2
      m_Curve:
      - serializedVersion: 3
        time: 0
        value: 0
        inSlope: -0.10860369
        outSlope: -0.10860369
        tangentMode: 0
        weightedMode: 0
        inWeight: 0.33333334
        outWeight: 0.33333334
      - serializedVersion: 3
        time: 0.016666668
        value: -0.0018100616
        inSlope: -0.21226753
        outSlope: -0.21226753
        tangentMode: 0
        weightedMode: 0
        inWeight: 0.33333334
        outWeight: 0.33333334
      - serializedVersion: 3
        time: 0.033333335
        value: -0.007075585
        inSlope: -0.4121633
        outSlope: -0.4121633
        tangentMode: 0
        weightedMode: 0
        inWeight: 0.33333334
        outWeight: 0.33333334
      - serializedVersion: 3
        time: 0.050000004
        value: -0.015548839
        inSlope: -0.5971279
        outSlope: -0.5971279
        tangentMode: 0
        weightedMode: 0
        inWeight: 0.33333334
        outWeight: 0.33333334
      - serializedVersion: 3
        time: 0.06666667
        value: -0.02697985
        inSlope: -0.7669729
        outSlope: -0.7669729
        tangentMode: 0
        weightedMode: 0
        inWeight: 0.33333334
        outWeight: 0.33333334
      - serializedVersion: 3
        time: 0.083333336
        value: -0.041114602
        inSlope: -0.9214027
        outSlope: -0.9214027
        tangentMode: 0
        weightedMode: 0
        inWeight: 0.33333334
        outWeight: 0.33333334
      - serializedVersion: 3
        time: 0.1
        value: -0.057693273
        inSlope: -1.0600282
        outSlope: -1.0600282
        tangentMode: 0
        weightedMode: 0
        inWeight: 0.33333334
        outWeight: 0.33333334
      - serializedVersion: 3
        time: 0.11666667
        value: -0.07644887
        inSlope: -1.1823962
        outSlope: -1.1823962
        tangentMode: 0
        weightedMode: 0
        inWeight: 0.33333334
        outWeight: 0.33333334
      - serializedVersion: 3
        time: 0.13333334
        value: -0.09710649
        inSlope: -1.288032
        outSlope: -1.288032
        tangentMode: 0
        weightedMode: 0
        inWeight: 0.33333334
        outWeight: 0.33333334
      - serializedVersion: 3
        time: 0.15
        value: -0.11938328
        inSlope: -1.3764877
        outSlope: -1.3764877
        tangentMode: 0
        weightedMode: 0
        inWeight: 0.33333334
        outWeight: 0.33333334
      - serializedVersion: 3
        time: 0.16666667
        value: -0.14298941
        inSlope: -1.4473932
        outSlope: -1.4473932
        tangentMode: 0
        weightedMode: 0
        inWeight: 0.33333334
        outWeight: 0.33333334
      - serializedVersion: 3
        time: 0.18333334
        value: -0.16762972
        inSlope: -1.5005028
        outSlope: -1.5005028
        tangentMode: 0
        weightedMode: 0
        inWeight: 0.33333334
        outWeight: 0.33333334
      - serializedVersion: 3
        time: 0.2
        value: -0.19300617
        inSlope: -1.5357387
        outSlope: -1.5357387
        tangentMode: 0
        weightedMode: 0
        inWeight: 0.33333334
        outWeight: 0.33333334
      - serializedVersion: 3
        time: 0.21666667
        value: -0.218821
        inSlope: -1.5532244
        outSlope: -1.5532244
        tangentMode: 0
        weightedMode: 0
        inWeight: 0.33333334
        outWeight: 0.33333334
      - serializedVersion: 3
        time: 0.23333333
        value: -0.24478032
        inSlope: -1.5533116
        outSlope: -1.5533116
        tangentMode: 0
        weightedMode: 0
        inWeight: 0.33333334
        outWeight: 0.33333334
      - serializedVersion: 3
        time: 0.25
        value: -0.27059805
        inSlope: -1.5365837
        outSlope: -1.5365837
        tangentMode: 0
        weightedMode: 0
        inWeight: 0.33333334
        outWeight: 0.33333334
      - serializedVersion: 3
        time: 0.26666668
        value: -0.2959998
        inSlope: -1.5038534
        outSlope: -1.5038534
        tangentMode: 0
        weightedMode: 0
        inWeight: 0.33333334
        outWeight: 0.33333334
      - serializedVersion: 3
        time: 0.28333336
        value: -0.32072654
        inSlope: -1.4561424
        outSlope: -1.4561424
        tangentMode: 0
        weightedMode: 0
        inWeight: 0.33333334
        outWeight: 0.33333334
      - serializedVersion: 3
        time: 0.30000004
        value: -0.3445379
        inSlope: -1.39465
        outSlope: -1.39465
        tangentMode: 0
        weightedMode: 0
        inWeight: 0.33333334
        outWeight: 0.33333334
      - serializedVersion: 3
        time: 0.31666672
        value: -0.36721492
        inSlope: -1.3207088
        outSlope: -1.3207088
        tangentMode: 0
        weightedMode: 0
        inWeight: 0.33333334
        outWeight: 0.33333334
      - serializedVersion: 3
        time: 0.3333334
        value: -0.38856158
        inSlope: -1.2357213
        outSlope: -1.2357213
        tangentMode: 0
        weightedMode: 0
        inWeight: 0.33333334
        outWeight: 0.33333334
      - serializedVersion: 3
        time: 0.35000008
        value: -0.40840566
        inSlope: -1.1410966
        outSlope: -1.1410966
        tangentMode: 0
        weightedMode: 0
        inWeight: 0.33333334
        outWeight: 0.33333334
      - serializedVersion: 3
        time: 0.36666676
        value: -0.42659816
        inSlope: -1.038182
        outSlope: -1.038182
        tangentMode: 0
        weightedMode: 0
        inWeight: 0.33333334
        outWeight: 0.33333334
      - serializedVersion: 3
        time: 0.38333344
        value: -0.44301176
        inSlope: -0.9281866
        outSlope: -0.9281866
        tangentMode: 0
        weightedMode: 0
        inWeight: 0.33333334
        outWeight: 0.33333334
      - serializedVersion: 3
        time: 0.40000013
        value: -0.45753774
        inSlope: -0.81209886
        outSlope: -0.81209886
        tangentMode: 0
        weightedMode: 0
        inWeight: 0.33333334
        outWeight: 0.33333334
      - serializedVersion: 3
        time: 0.4166668
        value: -0.47008175
        inSlope: -0.69061637
        outSlope: -0.69061637
        tangentMode: 0
        weightedMode: 0
        inWeight: 0.33333334
        outWeight: 0.33333334
      - serializedVersion: 3
        time: 0.4333335
        value: -0.4805583
        inSlope: -0.5640815
        outSlope: -0.5640815
        tangentMode: 0
        weightedMode: 0
        inWeight: 0.33333334
        outWeight: 0.33333334
      - serializedVersion: 3
        time: 0.45000017
        value: -0.48888448
        inSlope: -0.43240482
        outSlope: -0.43240482
        tangentMode: 0
        weightedMode: 0
        inWeight: 0.33333334
        outWeight: 0.33333334
      - serializedVersion: 3
        time: 0.46666685
        value: -0.4949718
        inSlope: -0.2950195
        outSlope: -0.2950195
        tangentMode: 0
        weightedMode: 0
        inWeight: 0.33333334
        outWeight: 0.33333334
      - serializedVersion: 3
        time: 0.48333353
        value: -0.49871847
        inSlope: -0.15084511
        outSlope: -0.15084511
        tangentMode: 0
        weightedMode: 0
        inWeight: 0.33333334
        outWeight: 0.33333334
      - serializedVersion: 3
        time: 0.5
        value: -0.49999997
        inSlope: -0.07689089
        outSlope: -0.07689089
        tangentMode: 0
        weightedMode: 0
        inWeight: 0.33333334
        outWeight: 0.33333334
      m_PreInfinity: 2
      m_PostInfinity: 2
      m_RotationOrder: 4
    attribute: m_LocalRotation.y
    path: 
    classID: 4
    script: {fileID: 0}
  - curve:
      serializedVersion: 2
      m_Curve:
      - serializedVersion: 3
        time: 0
        value: 0.70710677
        inSlope: -0.00013947487
        outSlope: -0.00013947487
        tangentMode: 0
        weightedMode: 0
        inWeight: 0.33333334
        outWeight: 0.33333334
      - serializedVersion: 3
        time: 0.016666668
        value: 0.70710444
        inSlope: -0.0010621548
        outSlope: -0.0010621548
        tangentMode: 0
        weightedMode: 0
        inWeight: 0.33333334
        outWeight: 0.33333334
      - serializedVersion: 3
        time: 0.033333335
        value: 0.70707136
        inSlope: -0.005060434
        outSlope: -0.005060434
        tangentMode: 0
        weightedMode: 0
        inWeight: 0.33333334
        outWeight: 0.33333334
      - serializedVersion: 3
        time: 0.050000004
        value: 0.70693576
        inSlope: -0.014385581
        outSlope: -0.014385581
        tangentMode: 0
        weightedMode: 0
        inWeight: 0.33333334
        outWeight: 0.33333334
      - serializedVersion: 3
        time: 0.06666667
        value: 0.70659184
        inSlope: -0.030759577
        outSlope: -0.030759577
        tangentMode: 0
        weightedMode: 0
        inWeight: 0.33333334
        outWeight: 0.33333334
      - serializedVersion: 3
        time: 0.083333336
        value: 0.70591044
        inSlope: -0.055278547
        outSlope: -0.055278547
        tangentMode: 0
        weightedMode: 0
        inWeight: 0.33333334
        outWeight: 0.33333334
      - serializedVersion: 3
        time: 0.1
        value: 0.7047492
        inSlope: -0.0884539
        outSlope: -0.0884539
        tangentMode: 0
        weightedMode: 0
        inWeight: 0.33333334
        outWeight: 0.33333334
      - serializedVersion: 3
        time: 0.11666667
        value: 0.702962
        inSlope: -0.13026056
        outSlope: -0.13026056
        tangentMode: 0
        weightedMode: 0
        inWeight: 0.33333334
        outWeight: 0.33333334
      - serializedVersion: 3
        time: 0.13333334
        value: 0.7004072
        inSlope: -0.18018004
        outSlope: -0.18018004
        tangentMode: 0
        weightedMode: 0
        inWeight: 0.33333334
        outWeight: 0.33333334
      - serializedVersion: 3
        time: 0.15
        value: 0.696956
        inSlope: -0.23726466
        outSlope: -0.23726466
        tangentMode: 0
        weightedMode: 0
        inWeight: 0.33333334
        outWeight: 0.33333334
      - serializedVersion: 3
        time: 0.16666667
        value: 0.6924984
        inSlope: -0.30018035
        outSlope: -0.30018035
        tangentMode: 0
        weightedMode: 0
        inWeight: 0.33333334
        outWeight: 0.33333334
      - serializedVersion: 3
        time: 0.18333334
        value: 0.68694997
        inSlope: -0.36726418
        outSlope: -0.36726418
        tangentMode: 0
        weightedMode: 0
        inWeight: 0.33333334
        outWeight: 0.33333334
      - serializedVersion: 3
        time: 0.2
        value: 0.68025625
        inSlope: -0.4365975
        outSlope: -0.4365975
        tangentMode: 0
        weightedMode: 0
        inWeight: 0.33333334
        outWeight: 0.33333334
      - serializedVersion: 3
        time: 0.21666667
        value: 0.6723967
        inSlope: -0.5060703
        outSlope: -0.5060703
        tangentMode: 0
        weightedMode: 0
        inWeight: 0.33333334
        outWeight: 0.33333334
      - serializedVersion: 3
        time: 0.23333333
        value: 0.66338724
        inSlope: -0.57345814
        outSlope: -0.57345814
        tangentMode: 0
        weightedMode: 0
        inWeight: 0.33333334
        outWeight: 0.33333334
      - serializedVersion: 3
        time: 0.25
        value: 0.65328145
        inSlope: -0.63647366
        outSlope: -0.63647366
        tangentMode: 0
        weightedMode: 0
        inWeight: 0.33333334
        outWeight: 0.33333334
      - serializedVersion: 3
        time: 0.26666668
        value: 0.64217144
        inSlope: -0.6928623
        outSlope: -0.6928623
        tangentMode: 0
        weightedMode: 0
        inWeight: 0.33333334
        outWeight: 0.33333334
      - serializedVersion: 3
        time: 0.28333336
        value: 0.630186
        inSlope: -0.74045
        outSlope: -0.74045
        tangentMode: 0
        weightedMode: 0
        inWeight: 0.33333334
        outWeight: 0.33333334
      - serializedVersion: 3
        time: 0.30000004
        value: 0.61748976
        inSlope: -0.77720696
        outSlope: -0.77720696
        tangentMode: 0
        weightedMode: 0
        inWeight: 0.33333334
        outWeight: 0.33333334
      - serializedVersion: 3
        time: 0.31666672
        value: 0.6042791
        inSlope: -0.80132
        outSlope: -0.80132
        tangentMode: 0
        weightedMode: 0
        inWeight: 0.33333334
        outWeight: 0.33333334
      - serializedVersion: 3
        time: 0.3333334
        value: 0.59077907
        inSlope: -0.81120485
        outSlope: -0.81120485
        tangentMode: 0
        weightedMode: 0
        inWeight: 0.33333334
        outWeight: 0.33333334
      - serializedVersion: 3
        time: 0.35000008
        value: 0.5772389
        inSlope: -0.80555254
        outSlope: -0.80555254
        tangentMode: 0
        weightedMode: 0
        inWeight: 0.33333334
        outWeight: 0.33333334
      - serializedVersion: 3
        time: 0.36666676
        value: 0.5639273
        inSlope: -0.7833671
        outSlope: -0.7833671
        tangentMode: 0
        weightedMode: 0
        inWeight: 0.33333334
        outWeight: 0.33333334
      - serializedVersion: 3
        time: 0.38333344
        value: 0.55112666
        inSlope: -0.74397266
        outSlope: -0.74397266
        tangentMode: 0
        weightedMode: 0
        inWeight: 0.33333334
        outWeight: 0.33333334
      - serializedVersion: 3
        time: 0.40000013
        value: 0.5391282
        inSlope: -0.6870079
        outSlope: -0.6870079
        tangentMode: 0
        weightedMode: 0
        inWeight: 0.33333334
        outWeight: 0.33333334
      - serializedVersion: 3
        time: 0.4166668
        value: 0.5282264
        inSlope: -0.6124408
        outSlope: -0.6124408
        tangentMode: 0
        weightedMode: 0
        inWeight: 0.33333334
        outWeight: 0.33333334
      - serializedVersion: 3
        time: 0.4333335
        value: 0.5187135
        inSlope: -0.5205806
        outSlope: -0.5205806
        tangentMode: 0
        weightedMode: 0
        inWeight: 0.33333334
        outWeight: 0.33333334
      - serializedVersion: 3
        time: 0.45000017
        value: 0.5108737
        inSlope: -0.41206205
        outSlope: -0.41206205
        tangentMode: 0
        weightedMode: 0
        inWeight: 0.33333334
        outWeight: 0.33333334
      - serializedVersion: 3
        time: 0.46666685
        value: 0.50497806
        inSlope: -0.28786337
        outSlope: -0.28786337
        tangentMode: 0
        weightedMode: 0
        inWeight: 0.33333334
        outWeight: 0.33333334
      - serializedVersion: 3
        time: 0.48333353
        value: 0.5012782
        inSlope: -0.14934307
        outSlope: -0.14934307
        tangentMode: 0
        weightedMode: 0
        inWeight: 0.33333334
        outWeight: 0.33333334
      - serializedVersion: 3
        time: 0.5
        value: 0.49999997
        inSlope: -0.07669598
        outSlope: -0.07669598
        tangentMode: 0
        weightedMode: 0
        inWeight: 0.33333334
        outWeight: 0.33333334
      m_PreInfinity: 2
      m_PostInfinity: 2
      m_RotationOrder: 4
    attribute: m_LocalRotation.z
    path: 
    classID: 4
    script: {fileID: 0}
  - curve:
      serializedVersion: 2
      m_Curve:
      - serializedVersion: 3
        time: 0
        value: 0.70710677
        inSlope: -0.00013947487
        outSlope: -0.00013947487
        tangentMode: 0
        weightedMode: 0
        inWeight: 0.33333334
        outWeight: 0.33333334
      - serializedVersion: 3
        time: 0.016666668
        value: 0.70710444
        inSlope: -0.0010621548
        outSlope: -0.0010621548
        tangentMode: 0
        weightedMode: 0
        inWeight: 0.33333334
        outWeight: 0.33333334
      - serializedVersion: 3
        time: 0.033333335
        value: 0.70707136
        inSlope: -0.005060434
        outSlope: -0.005060434
        tangentMode: 0
        weightedMode: 0
        inWeight: 0.33333334
        outWeight: 0.33333334
      - serializedVersion: 3
        time: 0.050000004
        value: 0.70693576
        inSlope: -0.014385581
        outSlope: -0.014385581
        tangentMode: 0
        weightedMode: 0
        inWeight: 0.33333334
        outWeight: 0.33333334
      - serializedVersion: 3
        time: 0.06666667
        value: 0.70659184
        inSlope: -0.030759577
        outSlope: -0.030759577
        tangentMode: 0
        weightedMode: 0
        inWeight: 0.33333334
        outWeight: 0.33333334
      - serializedVersion: 3
        time: 0.083333336
        value: 0.70591044
        inSlope: -0.055278547
        outSlope: -0.055278547
        tangentMode: 0
        weightedMode: 0
        inWeight: 0.33333334
        outWeight: 0.33333334
      - serializedVersion: 3
        time: 0.1
        value: 0.7047492
        inSlope: -0.0884539
        outSlope: -0.0884539
        tangentMode: 0
        weightedMode: 0
        inWeight: 0.33333334
        outWeight: 0.33333334
      - serializedVersion: 3
        time: 0.11666667
        value: 0.702962
        inSlope: -0.13026056
        outSlope: -0.13026056
        tangentMode: 0
        weightedMode: 0
        inWeight: 0.33333334
        outWeight: 0.33333334
      - serializedVersion: 3
        time: 0.13333334
        value: 0.7004072
        inSlope: -0.18018004
        outSlope: -0.18018004
        tangentMode: 0
        weightedMode: 0
        inWeight: 0.33333334
        outWeight: 0.33333334
      - serializedVersion: 3
        time: 0.15
        value: 0.696956
        inSlope: -0.23726466
        outSlope: -0.23726466
        tangentMode: 0
        weightedMode: 0
        inWeight: 0.33333334
        outWeight: 0.33333334
      - serializedVersion: 3
        time: 0.16666667
        value: 0.6924984
        inSlope: -0.30018035
        outSlope: -0.30018035
        tangentMode: 0
        weightedMode: 0
        inWeight: 0.33333334
        outWeight: 0.33333334
      - serializedVersion: 3
        time: 0.18333334
        value: 0.68694997
        inSlope: -0.36726418
        outSlope: -0.36726418
        tangentMode: 0
        weightedMode: 0
        inWeight: 0.33333334
        outWeight: 0.33333334
      - serializedVersion: 3
        time: 0.2
        value: 0.68025625
        inSlope: -0.4365975
        outSlope: -0.4365975
        tangentMode: 0
        weightedMode: 0
        inWeight: 0.33333334
        outWeight: 0.33333334
      - serializedVersion: 3
        time: 0.21666667
        value: 0.6723967
        inSlope: -0.5060703
        outSlope: -0.5060703
        tangentMode: 0
        weightedMode: 0
        inWeight: 0.33333334
        outWeight: 0.33333334
      - serializedVersion: 3
        time: 0.23333333
        value: 0.66338724
        inSlope: -0.57345814
        outSlope: -0.57345814
        tangentMode: 0
        weightedMode: 0
        inWeight: 0.33333334
        outWeight: 0.33333334
      - serializedVersion: 3
        time: 0.25
        value: 0.65328145
        inSlope: -0.63647366
        outSlope: -0.63647366
        tangentMode: 0
        weightedMode: 0
        inWeight: 0.33333334
        outWeight: 0.33333334
      - serializedVersion: 3
        time: 0.26666668
        value: 0.64217144
        inSlope: -0.6928623
        outSlope: -0.6928623
        tangentMode: 0
        weightedMode: 0
        inWeight: 0.33333334
        outWeight: 0.33333334
      - serializedVersion: 3
        time: 0.28333336
        value: 0.630186
        inSlope: -0.74045
        outSlope: -0.74045
        tangentMode: 0
        weightedMode: 0
        inWeight: 0.33333334
        outWeight: 0.33333334
      - serializedVersion: 3
        time: 0.30000004
        value: 0.61748976
        inSlope: -0.77720696
        outSlope: -0.77720696
        tangentMode: 0
        weightedMode: 0
        inWeight: 0.33333334
        outWeight: 0.33333334
      - serializedVersion: 3
        time: 0.31666672
        value: 0.6042791
        inSlope: -0.80132
        outSlope: -0.80132
        tangentMode: 0
        weightedMode: 0
        inWeight: 0.33333334
        outWeight: 0.33333334
      - serializedVersion: 3
        time: 0.3333334
        value: 0.59077907
        inSlope: -0.81120485
        outSlope: -0.81120485
        tangentMode: 0
        weightedMode: 0
        inWeight: 0.33333334
        outWeight: 0.33333334
      - serializedVersion: 3
        time: 0.35000008
        value: 0.5772389
        inSlope: -0.80555254
        outSlope: -0.80555254
        tangentMode: 0
        weightedMode: 0
        inWeight: 0.33333334
        outWeight: 0.33333334
      - serializedVersion: 3
        time: 0.36666676
        value: 0.5639273
        inSlope: -0.7833671
        outSlope: -0.7833671
        tangentMode: 0
        weightedMode: 0
        inWeight: 0.33333334
        outWeight: 0.33333334
      - serializedVersion: 3
        time: 0.38333344
        value: 0.55112666
        inSlope: -0.74397266
        outSlope: -0.74397266
        tangentMode: 0
        weightedMode: 0
        inWeight: 0.33333334
        outWeight: 0.33333334
      - serializedVersion: 3
        time: 0.40000013
        value: 0.5391282
        inSlope: -0.6870079
        outSlope: -0.6870079
        tangentMode: 0
        weightedMode: 0
        inWeight: 0.33333334
        outWeight: 0.33333334
      - serializedVersion: 3
        time: 0.4166668
        value: 0.5282264
        inSlope: -0.6124408
        outSlope: -0.6124408
        tangentMode: 0
        weightedMode: 0
        inWeight: 0.33333334
        outWeight: 0.33333334
      - serializedVersion: 3
        time: 0.4333335
        value: 0.5187135
        inSlope: -0.5205806
        outSlope: -0.5205806
        tangentMode: 0
        weightedMode: 0
        inWeight: 0.33333334
        outWeight: 0.33333334
      - serializedVersion: 3
        time: 0.45000017
        value: 0.5108737
        inSlope: -0.41206205
        outSlope: -0.41206205
        tangentMode: 0
        weightedMode: 0
        inWeight: 0.33333334
        outWeight: 0.33333334
      - serializedVersion: 3
        time: 0.46666685
        value: 0.50497806
        inSlope: -0.28786337
        outSlope: -0.28786337
        tangentMode: 0
        weightedMode: 0
        inWeight: 0.33333334
        outWeight: 0.33333334
      - serializedVersion: 3
        time: 0.48333353
        value: 0.5012782
        inSlope: -0.14934307
        outSlope: -0.14934307
        tangentMode: 0
        weightedMode: 0
        inWeight: 0.33333334
        outWeight: 0.33333334
      - serializedVersion: 3
        time: 0.5
        value: 0.49999997
        inSlope: -0.07669598
        outSlope: -0.07669598
        tangentMode: 0
        weightedMode: 0
        inWeight: 0.33333334
        outWeight: 0.33333334
      m_PreInfinity: 2
      m_PostInfinity: 2
      m_RotationOrder: 4
    attribute: m_LocalRotation.w
    path: 
    classID: 4
    script: {fileID: 0}
  m_EulerEditorCurves:
  - curve:
      serializedVersion: 2
      m_Curve:
      - serializedVersion: 3
        time: 0
        value: 0
        inSlope: 0
        outSlope: 0
        tangentMode: 136
        weightedMode: 0
        inWeight: 0.33333334
        outWeight: 0.33333334
      - serializedVersion: 3
        time: 0.5
        value: 0
        inSlope: 0
        outSlope: 0
        tangentMode: 136
        weightedMode: 0
        inWeight: 0.33333334
        outWeight: 0.33333334
      m_PreInfinity: 2
      m_PostInfinity: 2
      m_RotationOrder: 4
    attribute: localEulerAnglesBaked.x
    path: 
    classID: 4
    script: {fileID: 0}
  - curve:
      serializedVersion: 2
      m_Curve:
      - serializedVersion: 3
        time: 0
        value: 0
        inSlope: 0
        outSlope: 0
        tangentMode: 136
        weightedMode: 0
        inWeight: 0.33333334
        outWeight: 0.33333334
      - serializedVersion: 3
        time: 0.5
        value: -90
        inSlope: 0
        outSlope: 0
        tangentMode: 136
        weightedMode: 0
        inWeight: 0.33333334
        outWeight: 0.33333334
      m_PreInfinity: 2
      m_PostInfinity: 2
      m_RotationOrder: 4
    attribute: localEulerAnglesBaked.y
    path: 
    classID: 4
    script: {fileID: 0}
  - curve:
      serializedVersion: 2
      m_Curve:
      - serializedVersion: 3
        time: 0
        value: 90
        inSlope: 0
        outSlope: 0
        tangentMode: 136
        weightedMode: 0
        inWeight: 0.33333334
        outWeight: 0.33333334
      - serializedVersion: 3
        time: 0.5
        value: 90
        inSlope: 0
        outSlope: 0
        tangentMode: 136
        weightedMode: 0
        inWeight: 0.33333334
        outWeight: 0.33333334
      m_PreInfinity: 2
      m_PostInfinity: 2
      m_RotationOrder: 4
    attribute: localEulerAnglesBaked.z
    path: 
    classID: 4
    script: {fileID: 0}
  m_HasGenericRootTransform: 0
  m_HasMotionFloatCurves: 0
  m_Events: []
