%YAML 1.1
%TAG !u! tag:unity3d.com,2011:
--- !u!74 &7400000
AnimationClip:
  m_ObjectHideFlags: 0
  m_CorrespondingSourceObject: {fileID: 0}
  m_PrefabInstance: {fileID: 0}
  m_PrefabAsset: {fileID: 0}
  m_Name: GradeMover900
  serializedVersion: 6
  m_Legacy: 1
  m_Compressed: 0
  m_UseHighQualityCurve: 1
  m_RotationCurves:
  - curve:
      serializedVersion: 2
      m_Curve:
      - serializedVersion: 3
        time: 0
        value: {x: 0.49999997, y: 0.49999997, z: 0.49999997, w: 0.49999997}
        inSlope: {x: -0.076889984, y: -0.076889984, z: 0.07669865, w: 0.07669865}
        outSlope: {x: -0.076889984, y: -0.076889984, z: 0.07669865, w: 0.07669865}
        tangentMode: 0
        weightedMode: 0
        inWeight: {x: 0.33333334, y: 0.33333334, z: 0.33333334, w: 0.33333334}
        outWeight: {x: 0.33333334, y: 0.33333334, z: 0.33333334, w: 0.33333334}
      - serializedVersion: 3
        time: 0.016666668
        value: {x: 0.49871847, y: 0.49871847, z: 0.5012783, w: 0.5012783}
        inSlope: {x: -0.15084653, y: -0.15084653, z: 0.14934628, w: 0.14934628}
        outSlope: {x: -0.15084653, y: -0.15084653, z: 0.14934628, w: 0.14934628}
        tangentMode: 0
        weightedMode: 0
        inWeight: {x: 0.33333334, y: 0.33333334, z: 0.33333334, w: 0.33333334}
        outWeight: {x: 0.33333334, y: 0.33333334, z: 0.33333334, w: 0.33333334}
      - serializedVersion: 3
        time: 0.033333335
        value: {x: 0.49497175, y: 0.49497175, z: 0.5049782, w: 0.5049782}
        inSlope: {x: -0.2950224, y: -0.2950224, z: 0.28786537, w: 0.28786537}
        outSlope: {x: -0.2950224, y: -0.2950224, z: 0.28786537, w: 0.28786537}
        tangentMode: 0
        weightedMode: 0
        inWeight: {x: 0.33333334, y: 0.33333334, z: 0.33333334, w: 0.33333334}
        outWeight: {x: 0.33333334, y: 0.33333334, z: 0.33333334, w: 0.33333334}
      - serializedVersion: 3
        time: 0.050000004
        value: {x: 0.4888844, y: 0.4888844, z: 0.5108738, w: 0.5108738}
        inSlope: {x: -0.43240517, y: -0.43240517, z: 0.41206062, w: 0.41206062}
        outSlope: {x: -0.43240517, y: -0.43240517, z: 0.41206062, w: 0.41206062}
        tangentMode: 0
        weightedMode: 0
        inWeight: {x: 0.33333334, y: 0.33333334, z: 0.33333334, w: 0.33333334}
        outWeight: {x: 0.33333334, y: 0.33333334, z: 0.33333334, w: 0.33333334}
      - serializedVersion: 3
        time: 0.06666667
        value: {x: 0.48055825, y: 0.48055825, z: 0.51871353, w: 0.51871353}
        inSlope: {x: -0.564082, y: -0.564082, z: 0.52058107, w: 0.52058107}
        outSlope: {x: -0.564082, y: -0.564082, z: 0.52058107, w: 0.52058107}
        tangentMode: 0
        weightedMode: 0
        inWeight: {x: 0.33333334, y: 0.33333334, z: 0.33333334, w: 0.33333334}
        outWeight: {x: 0.33333334, y: 0.33333334, z: 0.33333334, w: 0.33333334}
      - serializedVersion: 3
        time: 0.083333336
        value: {x: 0.47008166, y: 0.47008166, z: 0.5282265, w: 0.5282265}
        inSlope: {x: -0.6906179, y: -0.6906179, z: 0.61244136, w: 0.61244136}
        outSlope: {x: -0.6906179, y: -0.6906179, z: 0.61244136, w: 0.61244136}
        tangentMode: 0
        weightedMode: 0
        inWeight: {x: 0.33333334, y: 0.33333334, z: 0.33333334, w: 0.33333334}
        outWeight: {x: 0.33333334, y: 0.33333334, z: 0.33333334, w: 0.33333334}
      - serializedVersion: 3
        time: 0.1
        value: {x: 0.45753765, y: 0.45753765, z: 0.53912824, w: 0.53912824}
        inSlope: {x: -0.81209964, y: -0.81209964, z: 0.6870068, w: 0.6870068}
        outSlope: {x: -0.81209964, y: -0.81209964, z: 0.6870068, w: 0.6870068}
        tangentMode: 0
        weightedMode: 0
        inWeight: {x: 0.33333334, y: 0.33333334, z: 0.33333334, w: 0.33333334}
        outWeight: {x: 0.33333334, y: 0.33333334, z: 0.33333334, w: 0.33333334}
      - serializedVersion: 3
        time: 0.11666667
        value: {x: 0.44301167, y: 0.44301167, z: 0.5511267, w: 0.5511267}
        inSlope: {x: -0.9281881, y: -0.9281881, z: 0.74397314, w: 0.74397314}
        outSlope: {x: -0.9281881, y: -0.9281881, z: 0.74397314, w: 0.74397314}
        tangentMode: 0
        weightedMode: 0
        inWeight: {x: 0.33333334, y: 0.33333334, z: 0.33333334, w: 0.33333334}
        outWeight: {x: 0.33333334, y: 0.33333334, z: 0.33333334, w: 0.33333334}
      - serializedVersion: 3
        time: 0.13333334
        value: {x: 0.42659804, y: 0.42659804, z: 0.56392735, w: 0.56392735}
        inSlope: {x: -1.0381829, y: -1.0381829, z: 0.7833694, w: 0.7833694}
        outSlope: {x: -1.0381829, y: -1.0381829, z: 0.7833694, w: 0.7833694}
        tangentMode: 0
        weightedMode: 0
        inWeight: {x: 0.33333334, y: 0.33333334, z: 0.33333334, w: 0.33333334}
        outWeight: {x: 0.33333334, y: 0.33333334, z: 0.33333334, w: 0.33333334}
      - serializedVersion: 3
        time: 0.15
        value: {x: 0.40840557, y: 0.40840557, z: 0.57723904, w: 0.57723904}
        inSlope: {x: -1.1410968, y: -1.1410968, z: 0.80555326, w: 0.80555326}
        outSlope: {x: -1.1410968, y: -1.1410968, z: 0.80555326, w: 0.80555326}
        tangentMode: 0
        weightedMode: 0
        inWeight: {x: 0.33333334, y: 0.33333334, z: 0.33333334, w: 0.33333334}
        outWeight: {x: 0.33333334, y: 0.33333334, z: 0.33333334, w: 0.33333334}
      - serializedVersion: 3
        time: 0.16666667
        value: {x: 0.3885615, y: 0.3885615, z: 0.5907791, w: 0.5907791}
        inSlope: {x: -1.2357216, y: -1.2357216, z: 0.811202, w: 0.811202}
        outSlope: {x: -1.2357216, y: -1.2357216, z: 0.811202, w: 0.811202}
        tangentMode: 0
        weightedMode: 0
        inWeight: {x: 0.33333334, y: 0.33333334, z: 0.33333334, w: 0.33333334}
        outWeight: {x: 0.33333334, y: 0.33333334, z: 0.33333334, w: 0.33333334}
      - serializedVersion: 3
        time: 0.18333334
        value: {x: 0.36721486, y: 0.36721486, z: 0.6042791, w: 0.6042791}
        inSlope: {x: -1.3207091, y: -1.3207091, z: 0.80132073, w: 0.80132073}
        outSlope: {x: -1.3207091, y: -1.3207091, z: 0.80132073, w: 0.80132073}
        tangentMode: 0
        weightedMode: 0
        inWeight: {x: 0.33333334, y: 0.33333334, z: 0.33333334, w: 0.33333334}
        outWeight: {x: 0.33333334, y: 0.33333334, z: 0.33333334, w: 0.33333334}
      - serializedVersion: 3
        time: 0.2
        value: {x: 0.34453785, y: 0.34453785, z: 0.6174898, w: 0.6174898}
        inSlope: {x: -1.3946514, y: -1.3946514, z: 0.77720946, w: 0.77720946}
        outSlope: {x: -1.3946514, y: -1.3946514, z: 0.77720946, w: 0.77720946}
        tangentMode: 0
        weightedMode: 0
        inWeight: {x: 0.33333334, y: 0.33333334, z: 0.33333334, w: 0.33333334}
        outWeight: {x: 0.33333334, y: 0.33333334, z: 0.33333334, w: 0.33333334}
      - serializedVersion: 3
        time: 0.21666667
        value: {x: 0.32072648, y: 0.32072648, z: 0.6301861, w: 0.6301861}
        inSlope: {x: -1.4561428, y: -1.4561428, z: 0.7404489, w: 0.7404489}
        outSlope: {x: -1.4561428, y: -1.4561428, z: 0.7404489, w: 0.7404489}
        tangentMode: 0
        weightedMode: 0
        inWeight: {x: 0.33333334, y: 0.33333334, z: 0.33333334, w: 0.33333334}
        outWeight: {x: 0.33333334, y: 0.33333334, z: 0.33333334, w: 0.33333334}
      - serializedVersion: 3
        time: 0.23333333
        value: {x: 0.29599977, y: 0.29599977, z: 0.64217144, w: 0.64217144}
        inSlope: {x: -1.5038531, y: -1.5038531, z: 0.69286114, w: 0.69286114}
        outSlope: {x: -1.5038531, y: -1.5038531, z: 0.69286114, w: 0.69286114}
        tangentMode: 0
        weightedMode: 0
        inWeight: {x: 0.33333334, y: 0.33333334, z: 0.33333334, w: 0.33333334}
        outWeight: {x: 0.33333334, y: 0.33333334, z: 0.33333334, w: 0.33333334}
      - serializedVersion: 3
        time: 0.25
        value: {x: 0.27059805, y: 0.27059805, z: 0.65328145, w: 0.65328145}
        inSlope: {x: -1.5365841, y: -1.5365841, z: 0.63647366, w: 0.63647366}
        outSlope: {x: -1.5365841, y: -1.5365841, z: 0.63647366, w: 0.63647366}
        tangentMode: 0
        weightedMode: 0
        inWeight: {x: 0.33333334, y: 0.33333334, z: 0.33333334, w: 0.33333334}
        outWeight: {x: 0.33333334, y: 0.33333334, z: 0.33333334, w: 0.33333334}
      - serializedVersion: 3
        time: 0.26666668
        value: {x: 0.24478027, y: 0.24478027, z: 0.66338724, w: 0.66338724}
        inSlope: {x: -1.5533129, y: -1.5533129, z: 0.5734576, w: 0.5734576}
        outSlope: {x: -1.5533129, y: -1.5533129, z: 0.5734576, w: 0.5734576}
        tangentMode: 0
        weightedMode: 0
        inWeight: {x: 0.33333334, y: 0.33333334, z: 0.33333334, w: 0.33333334}
        outWeight: {x: 0.33333334, y: 0.33333334, z: 0.33333334, w: 0.33333334}
      - serializedVersion: 3
        time: 0.28333336
        value: {x: 0.21882091, y: 0.21882091, z: 0.6723967, w: 0.6723967}
        inSlope: {x: -1.553224, y: -1.553224, z: 0.5060716, w: 0.5060716}
        outSlope: {x: -1.553224, y: -1.553224, z: 0.5060716, w: 0.5060716}
        tangentMode: 0
        weightedMode: 0
        inWeight: {x: 0.33333334, y: 0.33333334, z: 0.33333334, w: 0.33333334}
        outWeight: {x: 0.33333334, y: 0.33333334, z: 0.33333334, w: 0.33333334}
      - serializedVersion: 3
        time: 0.30000004
        value: {x: 0.1930061, y: 0.1930061, z: 0.6802563, w: 0.6802563}
        inSlope: {x: -1.535736, y: -1.535736, z: 0.4365971, w: 0.4365971}
        outSlope: {x: -1.535736, y: -1.535736, z: 0.4365971, w: 0.4365971}
        tangentMode: 0
        weightedMode: 0
        inWeight: {x: 0.33333334, y: 0.33333334, z: 0.33333334, w: 0.33333334}
        outWeight: {x: 0.33333334, y: 0.33333334, z: 0.33333334, w: 0.33333334}
      - serializedVersion: 3
        time: 0.31666672
        value: {x: 0.16762967, y: 0.16762967, z: 0.68694997, w: 0.68694997}
        inSlope: {x: -1.5005012, y: -1.5005012, z: 0.36726385, w: 0.36726385}
        outSlope: {x: -1.5005012, y: -1.5005012, z: 0.36726385, w: 0.36726385}
        tangentMode: 0
        weightedMode: 0
        inWeight: {x: 0.33333334, y: 0.33333334, z: 0.33333334, w: 0.33333334}
        outWeight: {x: 0.33333334, y: 0.33333334, z: 0.33333334, w: 0.33333334}
      - serializedVersion: 3
        time: 0.3333334
        value: {x: 0.14298935, y: 0.14298935, z: 0.69249845, w: 0.69249845}
        inSlope: {x: -1.4473946, y: -1.4473946, z: 0.30018008, w: 0.30018008}
        outSlope: {x: -1.4473946, y: -1.4473946, z: 0.30018008, w: 0.30018008}
        tangentMode: 0
        weightedMode: 0
        inWeight: {x: 0.33333334, y: 0.33333334, z: 0.33333334, w: 0.33333334}
        outWeight: {x: 0.33333334, y: 0.33333334, z: 0.33333334, w: 0.33333334}
      - serializedVersion: 3
        time: 0.35000008
        value: {x: 0.11938315, y: 0.11938315, z: 0.696956, w: 0.696956}
        inSlope: {x: -1.3764893, y: -1.3764893, z: 0.23726444, w: 0.23726444}
        outSlope: {x: -1.3764893, y: -1.3764893, z: 0.23726444, w: 0.23726444}
        tangentMode: 0
        weightedMode: 0
        inWeight: {x: 0.33333334, y: 0.33333334, z: 0.33333334, w: 0.33333334}
        outWeight: {x: 0.33333334, y: 0.33333334, z: 0.33333334, w: 0.33333334}
      - serializedVersion: 3
        time: 0.36666676
        value: {x: 0.09710634, y: 0.09710634, z: 0.70040727, w: 0.70040727}
        inSlope: {x: -1.2880309, y: -1.2880309, z: 0.18017992, w: 0.18017992}
        outSlope: {x: -1.2880309, y: -1.2880309, z: 0.18017992, w: 0.18017992}
        tangentMode: 0
        weightedMode: 0
        inWeight: {x: 0.33333334, y: 0.33333334, z: 0.33333334, w: 0.33333334}
        outWeight: {x: 0.33333334, y: 0.33333334, z: 0.33333334, w: 0.33333334}
      - serializedVersion: 3
        time: 0.38333344
        value: {x: 0.07644875, y: 0.07644875, z: 0.702962, w: 0.702962}
        inSlope: {x: -1.1823951, y: -1.1823951, z: 0.13025868, w: 0.13025868}
        outSlope: {x: -1.1823951, y: -1.1823951, z: 0.13025868, w: 0.13025868}
        tangentMode: 0
        weightedMode: 0
        inWeight: {x: 0.33333334, y: 0.33333334, z: 0.33333334, w: 0.33333334}
        outWeight: {x: 0.33333334, y: 0.33333334, z: 0.33333334, w: 0.33333334}
      - serializedVersion: 3
        time: 0.40000013
        value: {x: 0.057693135, y: 0.057693135, z: 0.7047492, w: 0.7047492}
        inSlope: {x: -1.0600269, y: -1.0600269, z: 0.088453814, w: 0.088453814}
        outSlope: {x: -1.0600269, y: -1.0600269, z: 0.088453814, w: 0.088453814}
        tangentMode: 0
        weightedMode: 0
        inWeight: {x: 0.33333334, y: 0.33333334, z: 0.33333334, w: 0.33333334}
        outWeight: {x: 0.33333334, y: 0.33333334, z: 0.33333334, w: 0.33333334}
      - serializedVersion: 3
        time: 0.4166668
        value: {x: 0.041114494, y: 0.041114494, z: 0.70591044, w: 0.70591044}
        inSlope: {x: -0.92140007, y: -0.92140007, z: 0.055278495, w: 0.055278495}
        outSlope: {x: -0.92140007, y: -0.92140007, z: 0.055278495, w: 0.055278495}
        tangentMode: 0
        weightedMode: 0
        inWeight: {x: 0.33333334, y: 0.33333334, z: 0.33333334, w: 0.33333334}
        outWeight: {x: 0.33333334, y: 0.33333334, z: 0.33333334, w: 0.33333334}
      - serializedVersion: 3
        time: 0.4333335
        value: {x: 0.026979774, y: 0.026979774, z: 0.70659184, w: 0.70659184}
        inSlope: {x: -0.76697254, y: -0.76697254, z: 0.030759547, w: 0.030759547}
        outSlope: {x: -0.76697254, y: -0.76697254, z: 0.030759547, w: 0.030759547}
        tangentMode: 0
        weightedMode: 0
        inWeight: {x: 0.33333334, y: 0.33333334, z: 0.33333334, w: 0.33333334}
        outWeight: {x: 0.33333334, y: 0.33333334, z: 0.33333334, w: 0.33333334}
      - serializedVersion: 3
        time: 0.45000017
        value: {x: 0.015548722, y: 0.015548722, z: 0.70693576, w: 0.70693576}
        inSlope: {x: -0.59712785, y: -0.59712785, z: 0.01438557, w: 0.01438557}
        outSlope: {x: -0.59712785, y: -0.59712785, z: 0.01438557, w: 0.01438557}
        tangentMode: 0
        weightedMode: 0
        inWeight: {x: 0.33333334, y: 0.33333334, z: 0.33333334, w: 0.33333334}
        outWeight: {x: 0.33333334, y: 0.33333334, z: 0.33333334, w: 0.33333334}
      - serializedVersion: 3
        time: 0.46666685
        value: {x: 0.0070754956, y: 0.0070754956, z: 0.70707136, w: 0.70707136}
        inSlope: {x: -0.41216058, y: -0.41216058, z: 0.00506043, w: 0.00506043}
        outSlope: {x: -0.41216058, y: -0.41216058, z: 0.00506043, w: 0.00506043}
        tangentMode: 0
        weightedMode: 0
        inWeight: {x: 0.33333334, y: 0.33333334, z: 0.33333334, w: 0.33333334}
        outWeight: {x: 0.33333334, y: 0.33333334, z: 0.33333334, w: 0.33333334}
      - serializedVersion: 3
        time: 0.48333353
        value: {x: 0.0018100244, y: 0.0018100244, z: 0.70710444, w: 0.70710444}
        inSlope: {x: -0.21226537, y: -0.21226537, z: 0.0010621548, w: 0.0010621548}
        outSlope: {x: -0.21226537, y: -0.21226537, z: 0.0010621548, w: 0.0010621548}
        tangentMode: 0
        weightedMode: 0
        inWeight: {x: 0.33333334, y: 0.33333334, z: 0.33333334, w: 0.33333334}
        outWeight: {x: 0.33333334, y: 0.33333334, z: 0.33333334, w: 0.33333334}
      - serializedVersion: 3
        time: 0.5
        value: {x: 0, y: 0, z: 0.70710677, w: 0.70710677}
        inSlope: {x: -0.10860273, y: -0.10860273, z: 0.0001394765, w: 0.0001394765}
        outSlope: {x: -0.10860273, y: -0.10860273, z: 0.0001394765, w: 0.0001394765}
        tangentMode: 0
        weightedMode: 0
        inWeight: {x: 0.33333334, y: 0.33333334, z: 0.33333334, w: 0.33333334}
        outWeight: {x: 0.33333334, y: 0.33333334, z: 0.33333334, w: 0.33333334}
      m_PreInfinity: 2
      m_PostInfinity: 2
      m_RotationOrder: 4
    path: 
  m_CompressedRotationCurves: []
  m_EulerCurves: []
  m_PositionCurves: []
  m_ScaleCurves: []
  m_FloatCurves: []
  m_PPtrCurves: []
  m_SampleRate: 60
  m_WrapMode: 0
  m_Bounds:
    m_Center: {x: 0, y: 0, z: 0}
    m_Extent: {x: 0, y: 0, z: 0}
  m_ClipBindingConstant:
    genericBindings: []
    pptrCurveMapping: []
  m_AnimationClipSettings:
    serializedVersion: 2
    m_AdditiveReferencePoseClip: {fileID: 0}
    m_AdditiveReferencePoseTime: 0
    m_StartTime: 0
    m_StopTime: 0.5
    m_OrientationOffsetY: 0
    m_Level: 0
    m_CycleOffset: 0
    m_HasAdditiveReferencePose: 0
    m_LoopTime: 1
    m_LoopBlend: 0
    m_LoopBlendOrientation: 0
    m_LoopBlendPositionY: 0
    m_LoopBlendPositionXZ: 0
    m_KeepOriginalOrientation: 0
    m_KeepOriginalPositionY: 1
    m_KeepOriginalPositionXZ: 0
    m_HeightFromFeet: 0
    m_Mirror: 0
  m_EditorCurves:
  - curve:
      serializedVersion: 2
      m_Curve:
      - serializedVersion: 3
        time: 0
        value: 0.49999997
        inSlope: -0.076889984
        outSlope: -0.076889984
        tangentMode: 0
        weightedMode: 0
        inWeight: 0.33333334
        outWeight: 0.33333334
      - serializedVersion: 3
        time: 0.016666668
        value: 0.49871847
        inSlope: -0.15084653
        outSlope: -0.15084653
        tangentMode: 0
        weightedMode: 0
        inWeight: 0.33333334
        outWeight: 0.33333334
      - serializedVersion: 3
        time: 0.033333335
        value: 0.49497175
        inSlope: -0.2950224
        outSlope: -0.2950224
        tangentMode: 0
        weightedMode: 0
        inWeight: 0.33333334
        outWeight: 0.33333334
      - serializedVersion: 3
        time: 0.050000004
        value: 0.4888844
        inSlope: -0.43240517
        outSlope: -0.43240517
        tangentMode: 0
        weightedMode: 0
        inWeight: 0.33333334
        outWeight: 0.33333334
      - serializedVersion: 3
        time: 0.06666667
        value: 0.48055825
        inSlope: -0.564082
        outSlope: -0.564082
        tangentMode: 0
        weightedMode: 0
        inWeight: 0.33333334
        outWeight: 0.33333334
      - serializedVersion: 3
        time: 0.083333336
        value: 0.47008166
        inSlope: -0.6906179
        outSlope: -0.6906179
        tangentMode: 0
        weightedMode: 0
        inWeight: 0.33333334
        outWeight: 0.33333334
      - serializedVersion: 3
        time: 0.1
        value: 0.45753765
        inSlope: -0.81209964
        outSlope: -0.81209964
        tangentMode: 0
        weightedMode: 0
        inWeight: 0.33333334
        outWeight: 0.33333334
      - serializedVersion: 3
        time: 0.11666667
        value: 0.44301167
        inSlope: -0.9281881
        outSlope: -0.9281881
        tangentMode: 0
        weightedMode: 0
        inWeight: 0.33333334
        outWeight: 0.33333334
      - serializedVersion: 3
        time: 0.13333334
        value: 0.42659804
        inSlope: -1.0381829
        outSlope: -1.0381829
        tangentMode: 0
        weightedMode: 0
        inWeight: 0.33333334
        outWeight: 0.33333334
      - serializedVersion: 3
        time: 0.15
        value: 0.40840557
        inSlope: -1.1410968
        outSlope: -1.1410968
        tangentMode: 0
        weightedMode: 0
        inWeight: 0.33333334
        outWeight: 0.33333334
      - serializedVersion: 3
        time: 0.16666667
        value: 0.3885615
        inSlope: -1.2357216
        outSlope: -1.2357216
        tangentMode: 0
        weightedMode: 0
        inWeight: 0.33333334
        outWeight: 0.33333334
      - serializedVersion: 3
        time: 0.18333334
        value: 0.36721486
        inSlope: -1.3207091
        outSlope: -1.3207091
        tangentMode: 0
        weightedMode: 0
        inWeight: 0.33333334
        outWeight: 0.33333334
      - serializedVersion: 3
        time: 0.2
        value: 0.34453785
        inSlope: -1.3946514
        outSlope: -1.3946514
        tangentMode: 0
        weightedMode: 0
        inWeight: 0.33333334
        outWeight: 0.33333334
      - serializedVersion: 3
        time: 0.21666667
        value: 0.32072648
        inSlope: -1.4561428
        outSlope: -1.4561428
        tangentMode: 0
        weightedMode: 0
        inWeight: 0.33333334
        outWeight: 0.33333334
      - serializedVersion: 3
        time: 0.23333333
        value: 0.29599977
        inSlope: -1.5038531
        outSlope: -1.5038531
        tangentMode: 0
        weightedMode: 0
        inWeight: 0.33333334
        outWeight: 0.33333334
      - serializedVersion: 3
        time: 0.25
        value: 0.27059805
        inSlope: -1.5365841
        outSlope: -1.5365841
        tangentMode: 0
        weightedMode: 0
        inWeight: 0.33333334
        outWeight: 0.33333334
      - serializedVersion: 3
        time: 0.26666668
        value: 0.24478027
        inSlope: -1.5533129
        outSlope: -1.5533129
        tangentMode: 0
        weightedMode: 0
        inWeight: 0.33333334
        outWeight: 0.33333334
      - serializedVersion: 3
        time: 0.28333336
        value: 0.21882091
        inSlope: -1.553224
        outSlope: -1.553224
        tangentMode: 0
        weightedMode: 0
        inWeight: 0.33333334
        outWeight: 0.33333334
      - serializedVersion: 3
        time: 0.30000004
        value: 0.1930061
        inSlope: -1.535736
        outSlope: -1.535736
        tangentMode: 0
        weightedMode: 0
        inWeight: 0.33333334
        outWeight: 0.33333334
      - serializedVersion: 3
        time: 0.31666672
        value: 0.16762967
        inSlope: -1.5005012
        outSlope: -1.5005012
        tangentMode: 0
        weightedMode: 0
        inWeight: 0.33333334
        outWeight: 0.33333334
      - serializedVersion: 3
        time: 0.3333334
        value: 0.14298935
        inSlope: -1.4473946
        outSlope: -1.4473946
        tangentMode: 0
        weightedMode: 0
        inWeight: 0.33333334
        outWeight: 0.33333334
      - serializedVersion: 3
        time: 0.35000008
        value: 0.11938315
        inSlope: -1.3764893
        outSlope: -1.3764893
        tangentMode: 0
        weightedMode: 0
        inWeight: 0.33333334
        outWeight: 0.33333334
      - serializedVersion: 3
        time: 0.36666676
        value: 0.09710634
        inSlope: -1.2880309
        outSlope: -1.2880309
        tangentMode: 0
        weightedMode: 0
        inWeight: 0.33333334
        outWeight: 0.33333334
      - serializedVersion: 3
        time: 0.38333344
        value: 0.07644875
        inSlope: -1.1823951
        outSlope: -1.1823951
        tangentMode: 0
        weightedMode: 0
        inWeight: 0.33333334
        outWeight: 0.33333334
      - serializedVersion: 3
        time: 0.40000013
        value: 0.057693135
        inSlope: -1.0600269
        outSlope: -1.0600269
        tangentMode: 0
        weightedMode: 0
        inWeight: 0.33333334
        outWeight: 0.33333334
      - serializedVersion: 3
        time: 0.4166668
        value: 0.041114494
        inSlope: -0.92140007
        outSlope: -0.92140007
        tangentMode: 0
        weightedMode: 0
        inWeight: 0.33333334
        outWeight: 0.33333334
      - serializedVersion: 3
        time: 0.4333335
        value: 0.026979774
        inSlope: -0.76697254
        outSlope: -0.76697254
        tangentMode: 0
        weightedMode: 0
        inWeight: 0.33333334
        outWeight: 0.33333334
      - serializedVersion: 3
        time: 0.45000017
        value: 0.015548722
        inSlope: -0.59712785
        outSlope: -0.59712785
        tangentMode: 0
        weightedMode: 0
        inWeight: 0.33333334
        outWeight: 0.33333334
      - serializedVersion: 3
        time: 0.46666685
        value: 0.0070754956
        inSlope: -0.41216058
        outSlope: -0.41216058
        tangentMode: 0
        weightedMode: 0
        inWeight: 0.33333334
        outWeight: 0.33333334
      - serializedVersion: 3
        time: 0.48333353
        value: 0.0018100244
        inSlope: -0.21226537
        outSlope: -0.21226537
        tangentMode: 0
        weightedMode: 0
        inWeight: 0.33333334
        outWeight: 0.33333334
      - serializedVersion: 3
        time: 0.5
        value: 0
        inSlope: -0.10860273
        outSlope: -0.10860273
        tangentMode: 0
        weightedMode: 0
        inWeight: 0.33333334
        outWeight: 0.33333334
      m_PreInfinity: 2
      m_PostInfinity: 2
      m_RotationOrder: 4
    attribute: m_LocalRotation.x
    path: 
    classID: 4
    script: {fileID: 0}
  - curve:
      serializedVersion: 2
      m_Curve:
      - serializedVersion: 3
        time: 0
        value: 0.49999997
        inSlope: -0.076889984
        outSlope: -0.076889984
        tangentMode: 0
        weightedMode: 0
        inWeight: 0.33333334
        outWeight: 0.33333334
      - serializedVersion: 3
        time: 0.016666668
        value: 0.49871847
        inSlope: -0.15084653
        outSlope: -0.15084653
        tangentMode: 0
        weightedMode: 0
        inWeight: 0.33333334
        outWeight: 0.33333334
      - serializedVersion: 3
        time: 0.033333335
        value: 0.49497175
        inSlope: -0.2950224
        outSlope: -0.2950224
        tangentMode: 0
        weightedMode: 0
        inWeight: 0.33333334
        outWeight: 0.33333334
      - serializedVersion: 3
        time: 0.050000004
        value: 0.4888844
        inSlope: -0.43240517
        outSlope: -0.43240517
        tangentMode: 0
        weightedMode: 0
        inWeight: 0.33333334
        outWeight: 0.33333334
      - serializedVersion: 3
        time: 0.06666667
        value: 0.48055825
        inSlope: -0.564082
        outSlope: -0.564082
        tangentMode: 0
        weightedMode: 0
        inWeight: 0.33333334
        outWeight: 0.33333334
      - serializedVersion: 3
        time: 0.083333336
        value: 0.47008166
        inSlope: -0.6906179
        outSlope: -0.6906179
        tangentMode: 0
        weightedMode: 0
        inWeight: 0.33333334
        outWeight: 0.33333334
      - serializedVersion: 3
        time: 0.1
        value: 0.45753765
        inSlope: -0.81209964
        outSlope: -0.81209964
        tangentMode: 0
        weightedMode: 0
        inWeight: 0.33333334
        outWeight: 0.33333334
      - serializedVersion: 3
        time: 0.11666667
        value: 0.44301167
        inSlope: -0.9281881
        outSlope: -0.9281881
        tangentMode: 0
        weightedMode: 0
        inWeight: 0.33333334
        outWeight: 0.33333334
      - serializedVersion: 3
        time: 0.13333334
        value: 0.42659804
        inSlope: -1.0381829
        outSlope: -1.0381829
        tangentMode: 0
        weightedMode: 0
        inWeight: 0.33333334
        outWeight: 0.33333334
      - serializedVersion: 3
        time: 0.15
        value: 0.40840557
        inSlope: -1.1410968
        outSlope: -1.1410968
        tangentMode: 0
        weightedMode: 0
        inWeight: 0.33333334
        outWeight: 0.33333334
      - serializedVersion: 3
        time: 0.16666667
        value: 0.3885615
        inSlope: -1.2357216
        outSlope: -1.2357216
        tangentMode: 0
        weightedMode: 0
        inWeight: 0.33333334
        outWeight: 0.33333334
      - serializedVersion: 3
        time: 0.18333334
        value: 0.36721486
        inSlope: -1.3207091
        outSlope: -1.3207091
        tangentMode: 0
        weightedMode: 0
        inWeight: 0.33333334
        outWeight: 0.33333334
      - serializedVersion: 3
        time: 0.2
        value: 0.34453785
        inSlope: -1.3946514
        outSlope: -1.3946514
        tangentMode: 0
        weightedMode: 0
        inWeight: 0.33333334
        outWeight: 0.33333334
      - serializedVersion: 3
        time: 0.21666667
        value: 0.32072648
        inSlope: -1.4561428
        outSlope: -1.4561428
        tangentMode: 0
        weightedMode: 0
        inWeight: 0.33333334
        outWeight: 0.33333334
      - serializedVersion: 3
        time: 0.23333333
        value: 0.29599977
        inSlope: -1.5038531
        outSlope: -1.5038531
        tangentMode: 0
        weightedMode: 0
        inWeight: 0.33333334
        outWeight: 0.33333334
      - serializedVersion: 3
        time: 0.25
        value: 0.27059805
        inSlope: -1.5365841
        outSlope: -1.5365841
        tangentMode: 0
        weightedMode: 0
        inWeight: 0.33333334
        outWeight: 0.33333334
      - serializedVersion: 3
        time: 0.26666668
        value: 0.24478027
        inSlope: -1.5533129
        outSlope: -1.5533129
        tangentMode: 0
        weightedMode: 0
        inWeight: 0.33333334
        outWeight: 0.33333334
      - serializedVersion: 3
        time: 0.28333336
        value: 0.21882091
        inSlope: -1.553224
        outSlope: -1.553224
        tangentMode: 0
        weightedMode: 0
        inWeight: 0.33333334
        outWeight: 0.33333334
      - serializedVersion: 3
        time: 0.30000004
        value: 0.1930061
        inSlope: -1.535736
        outSlope: -1.535736
        tangentMode: 0
        weightedMode: 0
        inWeight: 0.33333334
        outWeight: 0.33333334
      - serializedVersion: 3
        time: 0.31666672
        value: 0.16762967
        inSlope: -1.5005012
        outSlope: -1.5005012
        tangentMode: 0
        weightedMode: 0
        inWeight: 0.33333334
        outWeight: 0.33333334
      - serializedVersion: 3
        time: 0.3333334
        value: 0.14298935
        inSlope: -1.4473946
        outSlope: -1.4473946
        tangentMode: 0
        weightedMode: 0
        inWeight: 0.33333334
        outWeight: 0.33333334
      - serializedVersion: 3
        time: 0.35000008
        value: 0.11938315
        inSlope: -1.3764893
        outSlope: -1.3764893
        tangentMode: 0
        weightedMode: 0
        inWeight: 0.33333334
        outWeight: 0.33333334
      - serializedVersion: 3
        time: 0.36666676
        value: 0.09710634
        inSlope: -1.2880309
        outSlope: -1.2880309
        tangentMode: 0
        weightedMode: 0
        inWeight: 0.33333334
        outWeight: 0.33333334
      - serializedVersion: 3
        time: 0.38333344
        value: 0.07644875
        inSlope: -1.1823951
        outSlope: -1.1823951
        tangentMode: 0
        weightedMode: 0
        inWeight: 0.33333334
        outWeight: 0.33333334
      - serializedVersion: 3
        time: 0.40000013
        value: 0.057693135
        inSlope: -1.0600269
        outSlope: -1.0600269
        tangentMode: 0
        weightedMode: 0
        inWeight: 0.33333334
        outWeight: 0.33333334
      - serializedVersion: 3
        time: 0.4166668
        value: 0.041114494
        inSlope: -0.92140007
        outSlope: -0.92140007
        tangentMode: 0
        weightedMode: 0
        inWeight: 0.33333334
        outWeight: 0.33333334
      - serializedVersion: 3
        time: 0.4333335
        value: 0.026979774
        inSlope: -0.76697254
        outSlope: -0.76697254
        tangentMode: 0
        weightedMode: 0
        inWeight: 0.33333334
        outWeight: 0.33333334
      - serializedVersion: 3
        time: 0.45000017
        value: 0.015548722
        inSlope: -0.59712785
        outSlope: -0.59712785
        tangentMode: 0
        weightedMode: 0
        inWeight: 0.33333334
        outWeight: 0.33333334
      - serializedVersion: 3
        time: 0.46666685
        value: 0.0070754956
        inSlope: -0.41216058
        outSlope: -0.41216058
        tangentMode: 0
        weightedMode: 0
        inWeight: 0.33333334
        outWeight: 0.33333334
      - serializedVersion: 3
        time: 0.48333353
        value: 0.0018100244
        inSlope: -0.21226537
        outSlope: -0.21226537
        tangentMode: 0
        weightedMode: 0
        inWeight: 0.33333334
        outWeight: 0.33333334
      - serializedVersion: 3
        time: 0.5
        value: 0
        inSlope: -0.10860273
        outSlope: -0.10860273
        tangentMode: 0
        weightedMode: 0
        inWeight: 0.33333334
        outWeight: 0.33333334
      m_PreInfinity: 2
      m_PostInfinity: 2
      m_RotationOrder: 4
    attribute: m_LocalRotation.y
    path: 
    classID: 4
    script: {fileID: 0}
  - curve:
      serializedVersion: 2
      m_Curve:
      - serializedVersion: 3
        time: 0
        value: 0.49999997
        inSlope: 0.07669865
        outSlope: 0.07669865
        tangentMode: 0
        weightedMode: 0
        inWeight: 0.33333334
        outWeight: 0.33333334
      - serializedVersion: 3
        time: 0.016666668
        value: 0.5012783
        inSlope: 0.14934628
        outSlope: 0.14934628
        tangentMode: 0
        weightedMode: 0
        inWeight: 0.33333334
        outWeight: 0.33333334
      - serializedVersion: 3
        time: 0.033333335
        value: 0.5049782
        inSlope: 0.28786537
        outSlope: 0.28786537
        tangentMode: 0
        weightedMode: 0
        inWeight: 0.33333334
        outWeight: 0.33333334
      - serializedVersion: 3
        time: 0.050000004
        value: 0.5108738
        inSlope: 0.41206062
        outSlope: 0.41206062
        tangentMode: 0
        weightedMode: 0
        inWeight: 0.33333334
        outWeight: 0.33333334
      - serializedVersion: 3
        time: 0.06666667
        value: 0.51871353
        inSlope: 0.52058107
        outSlope: 0.52058107
        tangentMode: 0
        weightedMode: 0
        inWeight: 0.33333334
        outWeight: 0.33333334
      - serializedVersion: 3
        time: 0.083333336
        value: 0.5282265
        inSlope: 0.61244136
        outSlope: 0.61244136
        tangentMode: 0
        weightedMode: 0
        inWeight: 0.33333334
        outWeight: 0.33333334
      - serializedVersion: 3
        time: 0.1
        value: 0.53912824
        inSlope: 0.6870068
        outSlope: 0.6870068
        tangentMode: 0
        weightedMode: 0
        inWeight: 0.33333334
        outWeight: 0.33333334
      - serializedVersion: 3
        time: 0.11666667
        value: 0.5511267
        inSlope: 0.74397314
        outSlope: 0.74397314
        tangentMode: 0
        weightedMode: 0
        inWeight: 0.33333334
        outWeight: 0.33333334
      - serializedVersion: 3
        time: 0.13333334
        value: 0.56392735
        inSlope: 0.7833694
        outSlope: 0.7833694
        tangentMode: 0
        weightedMode: 0
        inWeight: 0.33333334
        outWeight: 0.33333334
      - serializedVersion: 3
        time: 0.15
        value: 0.57723904
        inSlope: 0.80555326
        outSlope: 0.80555326
        tangentMode: 0
        weightedMode: 0
        inWeight: 0.33333334
        outWeight: 0.33333334
      - serializedVersion: 3
        time: 0.16666667
        value: 0.5907791
        inSlope: 0.811202
        outSlope: 0.811202
        tangentMode: 0
        weightedMode: 0
        inWeight: 0.33333334
        outWeight: 0.33333334
      - serializedVersion: 3
        time: 0.18333334
        value: 0.6042791
        inSlope: 0.80132073
        outSlope: 0.80132073
        tangentMode: 0
        weightedMode: 0
        inWeight: 0.33333334
        outWeight: 0.33333334
      - serializedVersion: 3
        time: 0.2
        value: 0.6174898
        inSlope: 0.77720946
        outSlope: 0.77720946
        tangentMode: 0
        weightedMode: 0
        inWeight: 0.33333334
        outWeight: 0.33333334
      - serializedVersion: 3
        time: 0.21666667
        value: 0.6301861
        inSlope: 0.7404489
        outSlope: 0.7404489
        tangentMode: 0
        weightedMode: 0
        inWeight: 0.33333334
        outWeight: 0.33333334
      - serializedVersion: 3
        time: 0.23333333
        value: 0.64217144
        inSlope: 0.69286114
        outSlope: 0.69286114
        tangentMode: 0
        weightedMode: 0
        inWeight: 0.33333334
        outWeight: 0.33333334
      - serializedVersion: 3
        time: 0.25
        value: 0.65328145
        inSlope: 0.63647366
        outSlope: 0.63647366
        tangentMode: 0
        weightedMode: 0
        inWeight: 0.33333334
        outWeight: 0.33333334
      - serializedVersion: 3
        time: 0.26666668
        value: 0.66338724
        inSlope: 0.5734576
        outSlope: 0.5734576
        tangentMode: 0
        weightedMode: 0
        inWeight: 0.33333334
        outWeight: 0.33333334
      - serializedVersion: 3
        time: 0.28333336
        value: 0.6723967
        inSlope: 0.5060716
        outSlope: 0.5060716
        tangentMode: 0
        weightedMode: 0
        inWeight: 0.33333334
        outWeight: 0.33333334
      - serializedVersion: 3
        time: 0.30000004
        value: 0.6802563
        inSlope: 0.4365971
        outSlope: 0.4365971
        tangentMode: 0
        weightedMode: 0
        inWeight: 0.33333334
        outWeight: 0.33333334
      - serializedVersion: 3
        time: 0.31666672
        value: 0.68694997
        inSlope: 0.36726385
        outSlope: 0.36726385
        tangentMode: 0
        weightedMode: 0
        inWeight: 0.33333334
        outWeight: 0.33333334
      - serializedVersion: 3
        time: 0.3333334
        value: 0.69249845
        inSlope: 0.30018008
        outSlope: 0.30018008
        tangentMode: 0
        weightedMode: 0
        inWeight: 0.33333334
        outWeight: 0.33333334
      - serializedVersion: 3
        time: 0.35000008
        value: 0.696956
        inSlope: 0.23726444
        outSlope: 0.23726444
        tangentMode: 0
        weightedMode: 0
        inWeight: 0.33333334
        outWeight: 0.33333334
      - serializedVersion: 3
        time: 0.36666676
        value: 0.70040727
        inSlope: 0.18017992
        outSlope: 0.18017992
        tangentMode: 0
        weightedMode: 0
        inWeight: 0.33333334
        outWeight: 0.33333334
      - serializedVersion: 3
        time: 0.38333344
        value: 0.702962
        inSlope: 0.13025868
        outSlope: 0.13025868
        tangentMode: 0
        weightedMode: 0
        inWeight: 0.33333334
        outWeight: 0.33333334
      - serializedVersion: 3
        time: 0.40000013
        value: 0.7047492
        inSlope: 0.088453814
        outSlope: 0.088453814
        tangentMode: 0
        weightedMode: 0
        inWeight: 0.33333334
        outWeight: 0.33333334
      - serializedVersion: 3
        time: 0.4166668
        value: 0.70591044
        inSlope: 0.055278495
        outSlope: 0.055278495
        tangentMode: 0
        weightedMode: 0
        inWeight: 0.33333334
        outWeight: 0.33333334
      - serializedVersion: 3
        time: 0.4333335
        value: 0.70659184
        inSlope: 0.030759547
        outSlope: 0.030759547
        tangentMode: 0
        weightedMode: 0
        inWeight: 0.33333334
        outWeight: 0.33333334
      - serializedVersion: 3
        time: 0.45000017
        value: 0.70693576
        inSlope: 0.01438557
        outSlope: 0.01438557
        tangentMode: 0
        weightedMode: 0
        inWeight: 0.33333334
        outWeight: 0.33333334
      - serializedVersion: 3
        time: 0.46666685
        value: 0.70707136
        inSlope: 0.00506043
        outSlope: 0.00506043
        tangentMode: 0
        weightedMode: 0
        inWeight: 0.33333334
        outWeight: 0.33333334
      - serializedVersion: 3
        time: 0.48333353
        value: 0.70710444
        inSlope: 0.0010621548
        outSlope: 0.0010621548
        tangentMode: 0
        weightedMode: 0
        inWeight: 0.33333334
        outWeight: 0.33333334
      - serializedVersion: 3
        time: 0.5
        value: 0.70710677
        inSlope: 0.0001394765
        outSlope: 0.0001394765
        tangentMode: 0
        weightedMode: 0
        inWeight: 0.33333334
        outWeight: 0.33333334
      m_PreInfinity: 2
      m_PostInfinity: 2
      m_RotationOrder: 4
    attribute: m_LocalRotation.z
    path: 
    classID: 4
    script: {fileID: 0}
  - curve:
      serializedVersion: 2
      m_Curve:
      - serializedVersion: 3
        time: 0
        value: 0.49999997
        inSlope: 0.07669865
        outSlope: 0.07669865
        tangentMode: 0
        weightedMode: 0
        inWeight: 0.33333334
        outWeight: 0.33333334
      - serializedVersion: 3
        time: 0.016666668
        value: 0.5012783
        inSlope: 0.14934628
        outSlope: 0.14934628
        tangentMode: 0
        weightedMode: 0
        inWeight: 0.33333334
        outWeight: 0.33333334
      - serializedVersion: 3
        time: 0.033333335
        value: 0.5049782
        inSlope: 0.28786537
        outSlope: 0.28786537
        tangentMode: 0
        weightedMode: 0
        inWeight: 0.33333334
        outWeight: 0.33333334
      - serializedVersion: 3
        time: 0.050000004
        value: 0.5108738
        inSlope: 0.41206062
        outSlope: 0.41206062
        tangentMode: 0
        weightedMode: 0
        inWeight: 0.33333334
        outWeight: 0.33333334
      - serializedVersion: 3
        time: 0.06666667
        value: 0.51871353
        inSlope: 0.52058107
        outSlope: 0.52058107
        tangentMode: 0
        weightedMode: 0
        inWeight: 0.33333334
        outWeight: 0.33333334
      - serializedVersion: 3
        time: 0.083333336
        value: 0.5282265
        inSlope: 0.61244136
        outSlope: 0.61244136
        tangentMode: 0
        weightedMode: 0
        inWeight: 0.33333334
        outWeight: 0.33333334
      - serializedVersion: 3
        time: 0.1
        value: 0.53912824
        inSlope: 0.6870068
        outSlope: 0.6870068
        tangentMode: 0
        weightedMode: 0
        inWeight: 0.33333334
        outWeight: 0.33333334
      - serializedVersion: 3
        time: 0.11666667
        value: 0.5511267
        inSlope: 0.74397314
        outSlope: 0.74397314
        tangentMode: 0
        weightedMode: 0
        inWeight: 0.33333334
        outWeight: 0.33333334
      - serializedVersion: 3
        time: 0.13333334
        value: 0.56392735
        inSlope: 0.7833694
        outSlope: 0.7833694
        tangentMode: 0
        weightedMode: 0
        inWeight: 0.33333334
        outWeight: 0.33333334
      - serializedVersion: 3
        time: 0.15
        value: 0.57723904
        inSlope: 0.80555326
        outSlope: 0.80555326
        tangentMode: 0
        weightedMode: 0
        inWeight: 0.33333334
        outWeight: 0.33333334
      - serializedVersion: 3
        time: 0.16666667
        value: 0.5907791
        inSlope: 0.811202
        outSlope: 0.811202
        tangentMode: 0
        weightedMode: 0
        inWeight: 0.33333334
        outWeight: 0.33333334
      - serializedVersion: 3
        time: 0.18333334
        value: 0.6042791
        inSlope: 0.80132073
        outSlope: 0.80132073
        tangentMode: 0
        weightedMode: 0
        inWeight: 0.33333334
        outWeight: 0.33333334
      - serializedVersion: 3
        time: 0.2
        value: 0.6174898
        inSlope: 0.77720946
        outSlope: 0.77720946
        tangentMode: 0
        weightedMode: 0
        inWeight: 0.33333334
        outWeight: 0.33333334
      - serializedVersion: 3
        time: 0.21666667
        value: 0.6301861
        inSlope: 0.7404489
        outSlope: 0.7404489
        tangentMode: 0
        weightedMode: 0
        inWeight: 0.33333334
        outWeight: 0.33333334
      - serializedVersion: 3
        time: 0.23333333
        value: 0.64217144
        inSlope: 0.69286114
        outSlope: 0.69286114
        tangentMode: 0
        weightedMode: 0
        inWeight: 0.33333334
        outWeight: 0.33333334
      - serializedVersion: 3
        time: 0.25
        value: 0.65328145
        inSlope: 0.63647366
        outSlope: 0.63647366
        tangentMode: 0
        weightedMode: 0
        inWeight: 0.33333334
        outWeight: 0.33333334
      - serializedVersion: 3
        time: 0.26666668
        value: 0.66338724
        inSlope: 0.5734576
        outSlope: 0.5734576
        tangentMode: 0
        weightedMode: 0
        inWeight: 0.33333334
        outWeight: 0.33333334
      - serializedVersion: 3
        time: 0.28333336
        value: 0.6723967
        inSlope: 0.5060716
        outSlope: 0.5060716
        tangentMode: 0
        weightedMode: 0
        inWeight: 0.33333334
        outWeight: 0.33333334
      - serializedVersion: 3
        time: 0.30000004
        value: 0.6802563
        inSlope: 0.4365971
        outSlope: 0.4365971
        tangentMode: 0
        weightedMode: 0
        inWeight: 0.33333334
        outWeight: 0.33333334
      - serializedVersion: 3
        time: 0.31666672
        value: 0.68694997
        inSlope: 0.36726385
        outSlope: 0.36726385
        tangentMode: 0
        weightedMode: 0
        inWeight: 0.33333334
        outWeight: 0.33333334
      - serializedVersion: 3
        time: 0.3333334
        value: 0.69249845
        inSlope: 0.30018008
        outSlope: 0.30018008
        tangentMode: 0
        weightedMode: 0
        inWeight: 0.33333334
        outWeight: 0.33333334
      - serializedVersion: 3
        time: 0.35000008
        value: 0.696956
        inSlope: 0.23726444
        outSlope: 0.23726444
        tangentMode: 0
        weightedMode: 0
        inWeight: 0.33333334
        outWeight: 0.33333334
      - serializedVersion: 3
        time: 0.36666676
        value: 0.70040727
        inSlope: 0.18017992
        outSlope: 0.18017992
        tangentMode: 0
        weightedMode: 0
        inWeight: 0.33333334
        outWeight: 0.33333334
      - serializedVersion: 3
        time: 0.38333344
        value: 0.702962
        inSlope: 0.13025868
        outSlope: 0.13025868
        tangentMode: 0
        weightedMode: 0
        inWeight: 0.33333334
        outWeight: 0.33333334
      - serializedVersion: 3
        time: 0.40000013
        value: 0.7047492
        inSlope: 0.088453814
        outSlope: 0.088453814
        tangentMode: 0
        weightedMode: 0
        inWeight: 0.33333334
        outWeight: 0.33333334
      - serializedVersion: 3
        time: 0.4166668
        value: 0.70591044
        inSlope: 0.055278495
        outSlope: 0.055278495
        tangentMode: 0
        weightedMode: 0
        inWeight: 0.33333334
        outWeight: 0.33333334
      - serializedVersion: 3
        time: 0.4333335
        value: 0.70659184
        inSlope: 0.030759547
        outSlope: 0.030759547
        tangentMode: 0
        weightedMode: 0
        inWeight: 0.33333334
        outWeight: 0.33333334
      - serializedVersion: 3
        time: 0.45000017
        value: 0.70693576
        inSlope: 0.01438557
        outSlope: 0.01438557
        tangentMode: 0
        weightedMode: 0
        inWeight: 0.33333334
        outWeight: 0.33333334
      - serializedVersion: 3
        time: 0.46666685
        value: 0.70707136
        inSlope: 0.00506043
        outSlope: 0.00506043
        tangentMode: 0
        weightedMode: 0
        inWeight: 0.33333334
        outWeight: 0.33333334
      - serializedVersion: 3
        time: 0.48333353
        value: 0.70710444
        inSlope: 0.0010621548
        outSlope: 0.0010621548
        tangentMode: 0
        weightedMode: 0
        inWeight: 0.33333334
        outWeight: 0.33333334
      - serializedVersion: 3
        time: 0.5
        value: 0.70710677
        inSlope: 0.0001394765
        outSlope: 0.0001394765
        tangentMode: 0
        weightedMode: 0
        inWeight: 0.33333334
        outWeight: 0.33333334
      m_PreInfinity: 2
      m_PostInfinity: 2
      m_RotationOrder: 4
    attribute: m_LocalRotation.w
    path: 
    classID: 4
    script: {fileID: 0}
  m_EulerEditorCurves:
  - curve:
      serializedVersion: 2
      m_Curve:
      - serializedVersion: 3
        time: 0
        value: 0
        inSlope: 0
        outSlope: 0
        tangentMode: 136
        weightedMode: 0
        inWeight: 0.33333334
        outWeight: 0.33333334
      - serializedVersion: 3
        time: 0.5
        value: 0
        inSlope: 0
        outSlope: 0
        tangentMode: 136
        weightedMode: 0
        inWeight: 0.33333334
        outWeight: 0.33333334
      m_PreInfinity: 2
      m_PostInfinity: 2
      m_RotationOrder: 4
    attribute: localEulerAnglesBaked.x
    path: 
    classID: 4
    script: {fileID: 0}
  - curve:
      serializedVersion: 2
      m_Curve:
      - serializedVersion: 3
        time: 0
        value: 90
        inSlope: 0
        outSlope: 0
        tangentMode: 136
        weightedMode: 0
        inWeight: 0.33333334
        outWeight: 0.33333334
      - serializedVersion: 3
        time: 0.5
        value: 0
        inSlope: 0
        outSlope: 0
        tangentMode: 136
        weightedMode: 0
        inWeight: 0.33333334
        outWeight: 0.33333334
      m_PreInfinity: 2
      m_PostInfinity: 2
      m_RotationOrder: 4
    attribute: localEulerAnglesBaked.y
    path: 
    classID: 4
    script: {fileID: 0}
  - curve:
      serializedVersion: 2
      m_Curve:
      - serializedVersion: 3
        time: 0
        value: 90
        inSlope: 0
        outSlope: 0
        tangentMode: 136
        weightedMode: 0
        inWeight: 0.33333334
        outWeight: 0.33333334
      - serializedVersion: 3
        time: 0.5
        value: 90
        inSlope: 0
        outSlope: 0
        tangentMode: 136
        weightedMode: 0
        inWeight: 0.33333334
        outWeight: 0.33333334
      m_PreInfinity: 2
      m_PostInfinity: 2
      m_RotationOrder: 4
    attribute: localEulerAnglesBaked.z
    path: 
    classID: 4
    script: {fileID: 0}
  m_HasGenericRootTransform: 0
  m_HasMotionFloatCurves: 0
  m_Events: []
